 06-09-17,00:00:54,4.168210E-11
 06-09-17,00:01:54,4.167830E-11
 06-09-17,00:02:54,4.167750E-11
 06-09-17,00:03:54,4.168390E-11
 06-09-17,00:04:54,4.170400E-11
 06-09-17,00:05:54,4.169060E-11
 06-09-17,00:06:54,4.169130E-11
 06-09-17,00:07:54,4.169540E-11
 06-09-17,00:08:54,4.172830E-11
 06-09-17,00:09:55,4.172780E-11
 06-09-17,00:10:55,4.172880E-11
 06-09-17,00:11:55,4.173000E-11
 06-09-17,00:12:55,4.172010E-11
 06-09-17,00:13:55,4.172630E-11
 06-09-17,00:14:55,4.172790E-11
 06-09-17,00:15:55,4.171900E-11
 06-09-17,00:16:55,4.171420E-11
 06-09-17,00:17:56,4.170820E-11
 06-09-17,00:18:56,4.170800E-11
 06-09-17,00:19:56,4.171530E-11
 06-09-17,00:20:56,4.170560E-11
 06-09-17,00:21:56,4.171350E-11
 06-09-17,00:22:56,4.171340E-11
 06-09-17,00:23:56,4.171830E-11
 06-09-17,00:24:56,4.172400E-11
 06-09-17,00:25:56,4.170960E-11
 06-09-17,00:26:56,4.171440E-11
 06-09-17,00:27:56,4.173040E-11
 06-09-17,00:28:57,4.172090E-11
 06-09-17,00:29:57,4.172190E-11
 06-09-17,00:30:57,4.172960E-11
 06-09-17,00:31:57,4.172660E-11
 06-09-17,00:32:57,4.170820E-11
 06-09-17,00:33:57,4.172000E-11
 06-09-17,00:34:57,4.171620E-11
 06-09-17,00:35:57,4.169540E-11
 06-09-17,00:36:57,4.170490E-11
 06-09-17,00:37:58,4.170750E-11
 06-09-17,00:38:58,4.172440E-11
 06-09-17,00:39:58,4.171890E-11
 06-09-17,00:40:58,4.172520E-11
 06-09-17,00:41:58,4.172380E-11
 06-09-17,00:42:58,4.173280E-11
 06-09-17,00:43:58,4.173490E-11
 06-09-17,00:44:59,4.174750E-11
 06-09-17,00:45:59,4.174480E-11
 06-09-17,00:46:59,4.175550E-11
 06-09-17,00:47:59,4.174540E-11
 06-09-17,00:48:59,4.173820E-11
 06-09-17,00:49:59,4.173760E-11
 06-09-17,00:50:59,4.173500E-11
 06-09-17,00:51:59,4.174530E-11
 06-09-17,00:52:59,4.174380E-11
 06-09-17,00:54:00,4.175260E-11
 06-09-17,00:55:00,4.174090E-11
 06-09-17,00:56:00,4.171170E-11
 06-09-17,00:57:00,4.171590E-11
 06-09-17,00:58:00,4.172120E-11
 06-09-17,00:59:00,4.171680E-11
 06-09-17,01:00:00,4.171840E-11
 06-09-17,01:01:00,4.172690E-11
 06-09-17,01:02:00,4.173090E-11
 06-09-17,01:03:00,4.174280E-11
 06-09-17,01:04:01,4.172510E-11
 06-09-17,01:05:01,4.171840E-11
 06-09-17,01:06:01,4.174390E-11
 06-09-17,01:07:01,4.174820E-11
 06-09-17,01:08:01,4.173580E-11
 06-09-17,01:09:01,4.174420E-11
 06-09-17,01:10:01,4.176000E-11
 06-09-17,01:11:01,4.176370E-11
 06-09-17,01:12:01,4.174230E-11
 06-09-17,01:13:02,4.175120E-11
 06-09-17,01:14:02,4.177100E-11
 06-09-17,01:15:02,4.176860E-11
 06-09-17,01:16:02,4.177400E-11
 06-09-17,01:17:02,4.176990E-11
 06-09-17,01:18:02,4.175600E-11
 06-09-17,01:19:02,4.175820E-11
 06-09-17,01:20:02,4.176970E-11
 06-09-17,01:21:03,4.178190E-11
 06-09-17,01:22:03,4.177650E-11
 06-09-17,01:23:03,4.176970E-11
 06-09-17,01:24:03,4.176110E-11
 06-09-17,01:25:03,4.175040E-11
 06-09-17,01:26:03,4.175370E-11
 06-09-17,01:27:03,4.176990E-11
 06-09-17,01:28:04,4.176180E-11
 06-09-17,01:29:04,4.176150E-11
 06-09-17,01:30:04,4.177140E-11
 06-09-17,01:31:04,4.176450E-11
 06-09-17,01:32:04,4.177200E-11
 06-09-17,01:33:04,4.176470E-11
 06-09-17,01:34:04,4.177180E-11
 06-09-17,01:35:04,4.177220E-11
 06-09-17,01:36:04,4.176160E-11
 06-09-17,01:37:05,4.176580E-11
 06-09-17,01:38:05,4.177880E-11
 06-09-17,01:39:05,4.176830E-11
 06-09-17,01:40:05,4.177090E-11
 06-09-17,01:41:05,4.176480E-11
 06-09-17,01:42:05,4.175600E-11
 06-09-17,01:43:05,4.176190E-11
 06-09-17,01:44:06,4.175040E-11
 06-09-17,01:45:06,4.174390E-11
 06-09-17,01:46:06,4.174920E-11
 06-09-17,01:47:06,4.175000E-11
 06-09-17,01:48:06,4.174710E-11
 06-09-17,01:49:07,4.173920E-11
 06-09-17,01:50:07,4.174610E-11
 06-09-17,01:51:07,4.174230E-11
 06-09-17,01:52:07,4.175270E-11
 06-09-17,01:53:07,4.174370E-11
 06-09-17,01:54:07,4.175270E-11
 06-09-17,01:55:07,4.176330E-11
 06-09-17,01:56:07,4.176010E-11
 06-09-17,01:57:08,4.177070E-11
 06-09-17,01:58:08,4.177330E-11
 06-09-17,01:59:08,4.176310E-11
 06-09-17,02:00:08,4.175980E-11
 06-09-17,02:01:08,4.175050E-11
 06-09-17,02:02:08,4.174780E-11
 06-09-17,02:03:08,4.175420E-11
 06-09-17,02:04:08,4.176160E-11
 06-09-17,02:05:08,4.176720E-11
 06-09-17,02:06:08,4.177960E-11
 06-09-17,02:07:09,4.176460E-11
 06-09-17,02:08:09,4.176100E-11
 06-09-17,02:09:09,4.177430E-11
 06-09-17,02:10:09,4.178140E-11
 06-09-17,02:11:09,4.178580E-11
 06-09-17,02:12:09,4.178390E-11
 06-09-17,02:13:10,4.177940E-11
 06-09-17,02:14:10,4.177980E-11
 06-09-17,02:15:10,4.176850E-11
 06-09-17,02:16:10,4.178360E-11
 06-09-17,02:17:10,4.178420E-11
 06-09-17,02:18:10,4.176110E-11
 06-09-17,02:19:10,4.176490E-11
 06-09-17,02:20:10,4.177010E-11
 06-09-17,02:21:10,4.177640E-11
 06-09-17,02:22:10,4.177310E-11
 06-09-17,02:23:11,4.177950E-11
 06-09-17,02:24:11,4.178290E-11
 06-09-17,02:25:11,4.176970E-11
 06-09-17,02:26:11,4.177040E-11
 06-09-17,02:27:11,4.176450E-11
 06-09-17,02:28:11,4.176440E-11
 06-09-17,02:29:11,4.177190E-11
 06-09-17,02:30:11,4.177040E-11
 06-09-17,02:31:11,4.178170E-11
 06-09-17,02:32:12,4.177720E-11
 06-09-17,02:33:12,4.176920E-11
 06-09-17,02:34:12,4.176860E-11
 06-09-17,02:35:12,4.176860E-11
 06-09-17,02:36:12,4.177880E-11
 06-09-17,02:37:12,4.177730E-11
 06-09-17,02:38:12,4.176860E-11
 06-09-17,02:39:12,4.176420E-11
 06-09-17,02:40:13,4.177830E-11
 06-09-17,02:41:13,4.178240E-11
 06-09-17,02:42:13,4.178270E-11
 06-09-17,02:43:13,4.176620E-11
 06-09-17,02:44:13,4.177120E-11
 06-09-17,02:45:13,4.176750E-11
 06-09-17,02:46:13,4.178100E-11
 06-09-17,02:47:13,4.178110E-11
 06-09-17,02:48:13,4.177130E-11
 06-09-17,02:49:13,4.178590E-11
 06-09-17,02:50:14,4.178600E-11
 06-09-17,02:51:14,4.180540E-11
 06-09-17,02:52:14,4.178990E-11
 06-09-17,02:53:14,4.178650E-11
 06-09-17,02:54:14,4.179500E-11
 06-09-17,02:55:14,4.178820E-11
 06-09-17,02:56:15,4.179870E-11
 06-09-17,02:57:15,4.177950E-11
 06-09-17,02:58:15,4.175020E-11
 06-09-17,02:59:15,4.175140E-11
 06-09-17,03:00:15,4.176850E-11
 06-09-17,03:01:15,4.177490E-11
 06-09-17,03:02:15,4.177470E-11
 06-09-17,03:03:15,4.179160E-11
 06-09-17,03:04:16,4.178580E-11
 06-09-17,03:05:16,4.177710E-11
 06-09-17,03:06:16,4.178170E-11
 06-09-17,03:07:16,4.178970E-11
 06-09-17,03:08:16,4.178040E-11
 06-09-17,03:09:16,4.178590E-11
 06-09-17,03:10:16,4.179140E-11
 06-09-17,03:11:16,4.178220E-11
 06-09-17,03:12:16,4.178020E-11
 06-09-17,03:13:16,4.177760E-11
 06-09-17,03:14:16,4.178140E-11
 06-09-17,03:15:16,4.178680E-11
 06-09-17,03:16:17,4.179880E-11
 06-09-17,03:17:17,4.181290E-11
 06-09-17,03:18:17,4.179630E-11
 06-09-17,03:19:17,4.178030E-11
 06-09-17,03:20:17,4.178130E-11
 06-09-17,03:21:17,4.177440E-11
 06-09-17,03:22:17,4.178080E-11
 06-09-17,03:23:18,4.178320E-11
 06-09-17,03:24:18,4.178760E-11
 06-09-17,03:25:18,4.179500E-11
 06-09-17,03:26:18,4.178660E-11
 06-09-17,03:27:18,4.178160E-11
 06-09-17,03:28:19,4.181630E-11
 06-09-17,03:29:19,4.179410E-11
 06-09-17,03:30:19,4.179240E-11
 06-09-17,03:31:19,4.179190E-11
 06-09-17,03:32:19,4.179710E-11
 06-09-17,03:33:19,4.180800E-11
 06-09-17,03:34:20,4.180590E-11
 06-09-17,03:35:20,4.178810E-11
 06-09-17,03:36:20,4.178300E-11
 06-09-17,03:37:20,4.180770E-11
 06-09-17,03:38:20,4.179320E-11
 06-09-17,03:39:20,4.178030E-11
 06-09-17,03:40:21,4.179640E-11
 06-09-17,03:41:21,4.179020E-11
 06-09-17,03:42:21,4.178490E-11
 06-09-17,03:43:21,4.179170E-11
 06-09-17,03:44:21,4.178750E-11
 06-09-17,03:45:21,4.178330E-11
 06-09-17,03:46:21,4.177740E-11
 06-09-17,03:47:21,4.178090E-11
 06-09-17,03:48:22,4.178890E-11
 06-09-17,03:49:22,4.176290E-11
 06-09-17,03:50:22,4.176180E-11
 06-09-17,03:51:22,4.176480E-11
 06-09-17,03:52:22,4.178640E-11
 06-09-17,03:53:22,4.178010E-11
 06-09-17,03:54:22,4.177490E-11
 06-09-17,03:55:23,4.177630E-11
 06-09-17,03:56:23,4.177140E-11
 06-09-17,03:57:23,4.177410E-11
 06-09-17,03:58:23,4.177420E-11
 06-09-17,03:59:23,4.178200E-11
 06-09-17,04:00:23,4.178980E-11
 06-09-17,04:01:23,4.178090E-11
 06-09-17,04:02:23,4.177990E-11
 06-09-17,04:03:23,4.177320E-11
 06-09-17,04:04:24,4.178210E-11
 06-09-17,04:05:24,4.179150E-11
 06-09-17,04:06:24,4.177980E-11
 06-09-17,04:07:24,4.175640E-11
 06-09-17,04:08:24,4.174950E-11
 06-09-17,04:09:24,4.175450E-11
 06-09-17,04:10:24,4.177510E-11
 06-09-17,04:11:24,4.178390E-11
 06-09-17,04:12:24,4.178620E-11
 06-09-17,04:13:24,4.178710E-11
 06-09-17,04:14:25,4.176670E-11
 06-09-17,04:15:25,4.176890E-11
 06-09-17,04:16:25,4.177970E-11
 06-09-17,04:17:25,4.177800E-11
 06-09-17,04:18:25,4.177920E-11
 06-09-17,04:19:25,4.177640E-11
 06-09-17,04:20:25,4.177650E-11
 06-09-17,04:21:25,4.179600E-11
 06-09-17,04:22:25,4.179140E-11
 06-09-17,04:23:26,4.178780E-11
 06-09-17,04:24:26,4.179020E-11
 06-09-17,04:25:26,4.179140E-11
 06-09-17,04:26:26,4.178300E-11
 06-09-17,04:27:26,4.178600E-11
 06-09-17,04:28:26,4.178490E-11
 06-09-17,04:29:26,4.178750E-11
 06-09-17,04:30:27,4.178800E-11
 06-09-17,04:31:27,4.178970E-11
 06-09-17,04:32:27,4.177550E-11
 06-09-17,04:33:27,4.178420E-11
 06-09-17,04:34:27,4.180230E-11
 06-09-17,04:35:28,4.180420E-11
 06-09-17,04:36:28,4.180270E-11
 06-09-17,04:37:28,4.179360E-11
 06-09-17,04:38:28,4.180900E-11
 06-09-17,04:39:28,4.181780E-11
 06-09-17,04:40:28,4.182210E-11
 06-09-17,04:41:28,4.181330E-11
 06-09-17,04:42:28,4.181090E-11
 06-09-17,04:43:29,4.181830E-11
 06-09-17,04:44:29,4.180390E-11
 06-09-17,04:45:29,4.180320E-11
 06-09-17,04:46:29,4.179280E-11
 06-09-17,04:47:29,4.178920E-11
 06-09-17,04:48:29,4.178210E-11
 06-09-17,04:49:29,4.178780E-11
 06-09-17,04:50:29,4.177950E-11
 06-09-17,04:51:29,4.178650E-11
 06-09-17,04:52:29,4.178880E-11
 06-09-17,04:53:29,4.178060E-11
 06-09-17,04:54:29,4.177500E-11
 06-09-17,04:55:30,4.178120E-11
 06-09-17,04:56:30,4.178660E-11
 06-09-17,04:57:30,4.177880E-11
 06-09-17,04:58:30,4.178170E-11
 06-09-17,04:59:30,4.179070E-11
 06-09-17,05:00:30,4.181030E-11
 06-09-17,05:01:30,4.180930E-11
 06-09-17,05:02:30,4.182040E-11
 06-09-17,05:03:30,4.180070E-11
 06-09-17,05:04:31,4.180410E-11
 06-09-17,05:05:31,4.181330E-11
 06-09-17,05:06:31,4.181050E-11
 06-09-17,05:07:31,4.181310E-11
 06-09-17,05:08:31,4.180610E-11
 06-09-17,05:09:31,4.180320E-11
 06-09-17,05:10:31,4.180040E-11
 06-09-17,05:11:31,4.180640E-11
 06-09-17,05:12:31,4.180710E-11
 06-09-17,05:13:31,4.179720E-11
 06-09-17,05:14:31,4.180440E-11
 06-09-17,05:15:32,4.181440E-11
 06-09-17,05:16:32,4.182240E-11
 06-09-17,05:17:32,4.182200E-11
 06-09-17,05:18:32,4.182560E-11
 06-09-17,05:19:33,4.182200E-11
 06-09-17,05:20:33,4.182650E-11
 06-09-17,05:21:33,4.182990E-11
 06-09-17,05:22:33,4.184390E-11
 06-09-17,05:23:33,4.183540E-11
 06-09-17,05:24:33,4.180400E-11
 06-09-17,05:25:33,4.180630E-11
 06-09-17,05:26:33,4.182050E-11
 06-09-17,05:27:33,4.181400E-11
 06-09-17,05:28:33,4.181620E-11
 06-09-17,05:29:34,4.181440E-11
 06-09-17,05:30:34,4.181430E-11
 06-09-17,05:31:34,4.180480E-11
 06-09-17,05:32:34,4.181020E-11
 06-09-17,05:33:34,4.181690E-11
 06-09-17,05:34:35,4.181800E-11
 06-09-17,05:35:35,4.183000E-11
 06-09-17,05:36:35,4.181710E-11
 06-09-17,05:37:35,4.182420E-11
 06-09-17,05:38:35,4.180360E-11
 06-09-17,05:39:35,4.182480E-11
 06-09-17,05:40:35,4.182560E-11
 06-09-17,05:41:35,4.182070E-11
 06-09-17,05:42:35,4.181710E-11
 06-09-17,05:43:35,4.181140E-11
 06-09-17,05:44:35,4.182180E-11
 06-09-17,05:45:36,4.183180E-11
 06-09-17,05:46:36,4.183070E-11
 06-09-17,05:47:36,4.183970E-11
 06-09-17,05:48:36,4.184960E-11
 06-09-17,05:49:36,4.185420E-11
 06-09-17,05:50:36,4.184190E-11
 06-09-17,05:51:36,4.186030E-11
 06-09-17,05:52:36,4.186370E-11
 06-09-17,05:53:37,4.184230E-11
 06-09-17,05:54:37,4.183310E-11
 06-09-17,05:55:37,4.183320E-11
 06-09-17,05:56:37,4.182840E-11
 06-09-17,05:57:37,4.182440E-11
 06-09-17,05:58:37,4.182040E-11
 06-09-17,05:59:37,4.182170E-11
 06-09-17,06:00:37,4.182700E-11
 06-09-17,06:01:38,4.182830E-11
 06-09-17,06:02:38,4.182470E-11
 06-09-17,06:03:38,4.184270E-11
 06-09-17,06:04:38,4.186120E-11
 06-09-17,06:05:38,4.186050E-11
 06-09-17,06:06:38,4.186910E-11
 06-09-17,06:07:38,4.186160E-11
 06-09-17,06:08:38,4.184150E-11
 06-09-17,06:09:39,4.183260E-11
 06-09-17,06:10:39,4.183410E-11
 06-09-17,06:11:39,4.182890E-11
 06-09-17,06:12:39,4.182250E-11
 06-09-17,06:13:39,4.182260E-11
 06-09-17,06:14:39,4.182190E-11
 06-09-17,06:15:39,4.182270E-11
 06-09-17,06:16:39,4.182870E-11
 06-09-17,06:17:40,4.182740E-11
 06-09-17,06:18:40,4.183170E-11
 06-09-17,06:19:40,4.182850E-11
 06-09-17,06:20:40,4.182350E-11
 06-09-17,06:21:40,4.182310E-11
 06-09-17,06:22:40,4.181710E-11
 06-09-17,06:23:40,4.182990E-11
 06-09-17,06:24:40,4.183240E-11
 06-09-17,06:25:40,4.182940E-11
 06-09-17,06:26:41,4.182740E-11
 06-09-17,06:27:41,4.183850E-11
 06-09-17,06:28:41,4.183160E-11
 06-09-17,06:29:41,4.181660E-11
 06-09-17,06:30:41,4.182100E-11
 06-09-17,06:31:41,4.182810E-11
 06-09-17,06:32:41,4.183130E-11
 06-09-17,06:33:42,4.182870E-11
 06-09-17,06:34:42,4.182530E-11
 06-09-17,06:35:42,4.183470E-11
 06-09-17,06:36:42,4.183010E-11
 06-09-17,06:37:42,4.183880E-11
 06-09-17,06:38:42,4.183000E-11
 06-09-17,06:39:42,4.183700E-11
 06-09-17,06:40:42,4.184460E-11
 06-09-17,06:41:43,4.185760E-11
 06-09-17,06:42:43,4.184140E-11
 06-09-17,06:43:43,4.185220E-11
 06-09-17,06:44:43,4.185250E-11
 06-09-17,06:45:43,4.186170E-11
 06-09-17,06:46:43,4.186270E-11
 06-09-17,06:47:43,4.185230E-11
 06-09-17,06:48:43,4.185090E-11
 06-09-17,06:49:43,4.185310E-11
 06-09-17,06:50:43,4.184780E-11
 06-09-17,06:51:43,4.183440E-11
 06-09-17,06:52:44,4.182710E-11
 06-09-17,06:53:44,4.182420E-11
 06-09-17,06:54:44,4.183210E-11
 06-09-17,06:55:44,4.181420E-11
 06-09-17,06:56:44,4.181210E-11
 06-09-17,06:57:44,4.182440E-11
 06-09-17,06:58:44,4.183570E-11
 06-09-17,06:59:44,4.182410E-11
 06-09-17,07:00:44,4.182360E-11
 06-09-17,07:01:45,4.184290E-11
 06-09-17,07:02:45,4.184780E-11
 06-09-17,07:03:45,4.186040E-11
 06-09-17,07:04:45,4.185550E-11
 06-09-17,07:05:45,4.185370E-11
 06-09-17,07:06:45,4.186630E-11
 06-09-17,07:07:45,4.187950E-11
 06-09-17,07:08:46,4.187220E-11
 06-09-17,07:09:46,4.186510E-11
 06-09-17,07:10:46,4.185130E-11
 06-09-17,07:11:46,4.184580E-11
 06-09-17,07:12:46,4.185580E-11
 06-09-17,07:13:46,4.185240E-11
 06-09-17,07:14:46,4.186150E-11
 06-09-17,07:15:47,4.186770E-11
 06-09-17,07:16:47,4.186040E-11
 06-09-17,07:17:47,4.186450E-11
 06-09-17,07:18:47,4.185470E-11
 06-09-17,07:19:47,4.184710E-11
 06-09-17,07:20:47,4.184340E-11
 06-09-17,07:21:47,4.185580E-11
 06-09-17,07:22:47,4.183790E-11
 06-09-17,07:23:47,4.184290E-11
 06-09-17,07:24:48,4.184940E-11
 06-09-17,07:25:48,4.184770E-11
 06-09-17,07:26:48,4.185330E-11
 06-09-17,07:27:48,4.185870E-11
 06-09-17,07:28:48,4.186120E-11
 06-09-17,07:29:48,4.187910E-11
 06-09-17,07:30:48,4.188050E-11
 06-09-17,07:31:48,4.185510E-11
 06-09-17,07:32:49,4.185930E-11
 06-09-17,07:33:49,4.187060E-11
 06-09-17,07:34:49,4.186510E-11
 06-09-17,07:35:49,4.185800E-11
 06-09-17,07:36:49,4.184620E-11
 06-09-17,07:37:49,4.183570E-11
 06-09-17,07:38:49,4.183290E-11
 06-09-17,07:39:49,4.184580E-11
 06-09-17,07:40:49,4.183680E-11
 06-09-17,07:41:50,4.182800E-11
 06-09-17,07:42:50,4.184370E-11
 06-09-17,07:43:50,4.183940E-11
 06-09-17,07:44:50,4.183900E-11
 06-09-17,07:45:50,4.185070E-11
 06-09-17,07:46:50,4.186280E-11
 06-09-17,07:47:50,4.186740E-11
 06-09-17,07:48:50,4.190050E-11
 06-09-17,07:49:51,4.186980E-11
 06-09-17,07:50:51,4.185520E-11
 06-09-17,07:51:51,4.184810E-11
 06-09-17,07:52:51,4.184680E-11
 06-09-17,07:53:51,4.185280E-11
 06-09-17,07:54:51,4.185310E-11
 06-09-17,07:55:51,4.186180E-11
 06-09-17,07:56:52,4.185670E-11
 06-09-17,07:57:52,4.185370E-11
 06-09-17,07:58:52,4.186040E-11
 06-09-17,07:59:52,4.186680E-11
 06-09-17,08:00:52,4.186930E-11
 06-09-17,08:01:52,4.187720E-11
 06-09-17,08:02:52,4.186420E-11
 06-09-17,08:03:52,4.186460E-11
 06-09-17,08:04:52,4.187110E-11
 06-09-17,08:05:53,4.187060E-11
 06-09-17,08:06:53,4.189240E-11
 06-09-17,08:07:53,4.191400E-11
 06-09-17,08:08:53,4.191850E-11
 06-09-17,08:09:53,4.190830E-11
 06-09-17,08:10:53,4.189840E-11
 06-09-17,08:11:53,4.190180E-11
 06-09-17,08:12:53,4.191160E-11
 06-09-17,08:13:53,4.187540E-11
 06-09-17,08:14:53,4.187520E-11
 06-09-17,08:15:53,4.187340E-11
 06-09-17,08:16:54,4.184250E-11
 06-09-17,08:17:54,4.185010E-11
 06-09-17,08:18:54,4.186350E-11
 06-09-17,08:19:54,4.186080E-11
 06-09-17,08:20:54,4.184960E-11
 06-09-17,08:21:54,4.184570E-11
 06-09-17,08:22:54,4.185840E-11
 06-09-17,08:23:54,4.186410E-11
 06-09-17,08:24:55,4.185920E-11
 06-09-17,08:25:55,4.185850E-11
 06-09-17,08:26:55,4.185610E-11
 06-09-17,08:27:55,4.183500E-11
 06-09-17,08:28:55,4.182700E-11
 06-09-17,08:29:55,4.182240E-11
 06-09-17,08:30:55,4.183110E-11
 06-09-17,08:31:56,4.184880E-11
 06-09-17,08:32:56,4.184950E-11
 06-09-17,08:33:56,4.184430E-11
 06-09-17,08:34:56,4.183980E-11
 06-09-17,08:35:56,4.183600E-11
 06-09-17,08:36:56,4.183050E-11
 06-09-17,08:37:56,4.183700E-11
 06-09-17,08:38:56,4.183570E-11
 06-09-17,08:39:56,4.182530E-11
 06-09-17,08:40:56,4.181070E-11
 06-09-17,08:41:57,4.181660E-11
 06-09-17,08:42:57,4.182050E-11
 06-09-17,08:43:57,4.182220E-11
 06-09-17,08:44:57,4.183130E-11
 06-09-17,08:45:57,4.182960E-11
 06-09-17,08:46:57,4.182420E-11
 06-09-17,08:47:57,4.182890E-11
 06-09-17,08:48:58,4.182220E-11
 06-09-17,08:49:58,4.182910E-11
 06-09-17,08:50:58,4.183800E-11
 06-09-17,08:51:58,4.183520E-11
 06-09-17,08:52:58,4.183690E-11
 06-09-17,08:53:58,4.182760E-11
 06-09-17,08:54:59,4.182970E-11
 06-09-17,08:55:59,4.184250E-11
 06-09-17,08:56:59,4.183640E-11
 06-09-17,08:57:59,4.182860E-11
 06-09-17,08:58:59,4.182330E-11
 06-09-17,08:59:59,4.183620E-11
 06-09-17,09:00:59,4.185050E-11
 06-09-17,09:01:59,4.182860E-11
 06-09-17,09:02:59,4.183390E-11
 06-09-17,09:04:00,4.184020E-11
 06-09-17,09:05:00,4.184840E-11
 06-09-17,09:06:00,4.185390E-11
 06-09-17,09:07:00,4.185340E-11
 06-09-17,09:08:00,4.184390E-11
 06-09-17,09:09:00,4.532050E-11
 06-09-17,09:10:01,5.306250E-11
 06-09-17,09:11:01,7.121500E-12
 06-09-17,09:12:01,6.966600E-12
 06-09-17,09:13:01,6.980200E-12
 06-09-17,09:14:01,7.003900E-12
 06-09-17,09:15:01,6.823300E-12
 06-09-17,09:16:01,6.577800E-12
 06-09-17,09:17:01,6.547500E-12
 06-09-17,09:18:01,6.561400E-12
 06-09-17,09:19:01,6.564600E-12
 06-09-17,09:20:01,6.559200E-12
 06-09-17,09:21:01,6.546100E-12
 06-09-17,09:22:02,6.542900E-12
 06-09-17,09:23:02,6.531600E-12
 06-09-17,09:24:02,6.523100E-12
 06-09-17,09:25:02,6.518000E-12
 06-09-17,09:26:02,6.508900E-12
 06-09-17,09:27:02,6.504600E-12
 06-09-17,09:28:03,6.501900E-12
 06-09-17,09:29:03,6.496800E-12
 06-09-17,09:30:03,6.490700E-12
 06-09-17,09:31:03,6.489100E-12
 06-09-17,09:32:03,6.487100E-12
 06-09-17,09:33:03,6.485300E-12
 06-09-17,09:34:04,6.484200E-12
 06-09-17,09:35:04,6.483200E-12
 06-09-17,09:36:04,6.480900E-12
 06-09-17,09:37:04,6.479900E-12
 06-09-17,09:38:04,6.477400E-12
 06-09-17,09:39:04,6.474100E-12
 06-09-17,09:40:04,6.472100E-12
 06-09-17,09:41:05,6.475100E-12
 06-09-17,09:42:05,6.474700E-12
 06-09-17,09:43:05,6.473600E-12
 06-09-17,09:44:05,6.470800E-12
 06-09-17,09:45:05,6.471400E-12
 06-09-17,09:46:06,6.471600E-12
 06-09-17,09:47:06,6.468500E-12
 06-09-17,09:48:06,6.469000E-12
 06-09-17,09:49:06,6.468400E-12
 06-09-17,09:50:06,6.469100E-12
 06-09-17,09:51:06,6.468100E-12
 06-09-17,09:52:07,6.467700E-12
 06-09-17,09:53:07,6.468400E-12
 06-09-17,09:54:07,6.465600E-12
 06-09-17,09:55:07,6.467700E-12
 06-09-17,09:56:08,6.464100E-12
 06-09-17,09:57:08,6.465100E-12
 06-09-17,09:58:08,6.466900E-12
 06-09-17,09:59:08,6.465500E-12
 06-09-17,10:00:08,6.465900E-12
 06-09-17,10:01:08,6.464500E-12
 06-09-17,10:02:09,6.465200E-12
 06-09-17,10:03:09,6.465700E-12
 06-09-17,10:04:09,6.463800E-12
 06-09-17,10:05:09,6.467400E-12
 06-09-17,10:06:09,6.466300E-12
 06-09-17,10:07:09,6.466700E-12
 06-09-17,10:08:10,6.466000E-12
 06-09-17,10:09:10,6.466900E-12
 06-09-17,10:10:10,6.466500E-12
 06-09-17,10:11:10,6.466500E-12
 06-09-17,10:12:10,6.465900E-12
 06-09-17,10:13:10,6.465800E-12
 06-09-17,10:14:10,6.465100E-12
 06-09-17,10:15:10,6.464700E-12
 06-09-17,10:16:10,6.464600E-12
 06-09-17,10:17:10,6.465400E-12
 06-09-17,10:18:11,6.466300E-12
 06-09-17,10:19:11,6.466200E-12
 06-09-17,10:20:11,6.465600E-12
 06-09-17,10:21:11,6.466000E-12
 06-09-17,10:22:11,6.465500E-12
 06-09-17,10:23:11,6.466700E-12
 06-09-17,10:24:11,6.468700E-12
 06-09-17,10:25:11,6.464100E-12
 06-09-17,10:26:11,6.465900E-12
 06-09-17,10:27:12,6.464800E-12
 06-09-17,10:28:12,6.465000E-12
 06-09-17,10:29:12,6.467500E-12
 06-09-17,10:30:12,6.466300E-12
 06-09-17,10:31:12,6.467600E-12
 06-09-17,10:32:12,6.465500E-12
 06-09-17,10:33:12,6.466900E-12
 06-09-17,10:34:12,6.466600E-12
 06-09-17,10:35:13,6.466600E-12
 06-09-17,10:36:13,6.468400E-12
 06-09-17,10:37:13,6.469300E-12
 06-09-17,10:38:13,6.468000E-12
 06-09-17,10:39:13,6.466300E-12
 06-09-17,10:40:13,6.464200E-12
 06-09-17,10:41:13,6.464300E-12
 06-09-17,10:42:13,6.468800E-12
 06-09-17,10:43:14,6.470300E-12
 06-09-17,10:44:14,6.470400E-12
 06-09-17,10:45:14,6.468500E-12
 06-09-17,10:46:14,6.470100E-12
 06-09-17,10:47:14,6.470000E-12
 06-09-17,10:48:14,6.470400E-12
 06-09-17,10:49:14,6.469700E-12
 06-09-17,10:50:14,6.470500E-12
 06-09-17,10:51:15,6.471700E-12
 06-09-17,10:52:15,6.472600E-12
 06-09-17,10:53:15,6.470900E-12
 06-09-17,10:54:15,6.473600E-12
 06-09-17,10:55:15,6.471900E-12
 06-09-17,10:56:15,6.472100E-12
 06-09-17,10:57:15,6.470000E-12
 06-09-17,10:58:15,6.472100E-12
 06-09-17,10:59:16,6.472100E-12
 06-09-17,11:00:16,6.474200E-12
 06-09-17,11:01:16,6.473900E-12
 06-09-17,11:02:16,6.473300E-12
 06-09-17,11:03:16,6.473600E-12
 06-09-17,11:04:16,6.472300E-12
 06-09-17,11:05:16,6.475200E-12
 06-09-17,11:06:16,6.474500E-12
 06-09-17,11:07:16,6.473200E-12
 06-09-17,11:08:16,6.474200E-12
 06-09-17,11:09:16,6.475900E-12
 06-09-17,11:10:17,6.473500E-12
 06-09-17,11:11:17,6.472200E-12
 06-09-17,11:12:17,6.475000E-12
 06-09-17,11:13:17,6.474300E-12
 06-09-17,11:14:17,6.476900E-12
 06-09-17,11:15:17,6.476100E-12
 06-09-17,11:16:17,6.475400E-12
 06-09-17,11:17:17,6.475900E-12
 06-09-17,11:18:17,6.473500E-12
 06-09-17,11:19:17,6.475700E-12
 06-09-17,11:20:18,6.475700E-12
 06-09-17,11:21:18,6.476500E-12
 06-09-17,11:22:18,6.478600E-12
 06-09-17,11:23:18,6.477200E-12
 06-09-17,11:24:18,6.476100E-12
 06-09-17,11:25:18,6.474700E-12
 06-09-17,11:26:18,6.471900E-12
 06-09-17,11:27:18,6.475700E-12
 06-09-17,11:28:18,6.475200E-12
 06-09-17,11:29:18,6.476500E-12
 06-09-17,11:30:19,6.478200E-12
 06-09-17,11:31:19,6.475600E-12
 06-09-17,11:32:19,6.477700E-12
 06-09-17,11:33:19,6.476300E-12
 06-09-17,11:34:19,6.477100E-12
 06-09-17,11:35:20,6.478300E-12
 06-09-17,11:36:20,6.474900E-12
 06-09-17,11:37:20,6.475900E-12
 06-09-17,11:38:20,6.473900E-12
 06-09-17,11:39:20,6.475600E-12
 06-09-17,11:40:21,6.476600E-12
 06-09-17,11:41:21,6.474000E-12
 06-09-17,11:42:21,6.475200E-12
 06-09-17,11:43:21,6.476500E-12
 06-09-17,11:44:21,6.477500E-12
 06-09-17,11:45:22,6.476300E-12
 06-09-17,11:46:22,6.476700E-12
 06-09-17,11:47:22,6.475900E-12
 06-09-17,11:48:22,6.475000E-12
 06-09-17,11:49:22,6.475800E-12
 06-09-17,11:50:22,6.475300E-12
 06-09-17,11:51:23,6.474800E-12
 06-09-17,11:52:23,6.477100E-12
 06-09-17,11:53:23,6.474700E-12
 06-09-17,11:54:23,6.475800E-12
 06-09-17,11:55:23,6.475200E-12
 06-09-17,11:56:24,6.477500E-12
 06-09-17,11:57:24,6.476100E-12
 06-09-17,11:58:24,6.475800E-12
 06-09-17,11:59:24,6.476800E-12
 06-09-17,12:00:24,6.476800E-12
 06-09-17,12:01:24,6.475600E-12
 06-09-17,12:02:24,6.476700E-12
 06-09-17,12:03:24,6.476500E-12
 06-09-17,12:04:25,6.479100E-12
 06-09-17,12:05:25,6.476100E-12
 06-09-17,12:06:25,6.476700E-12
 06-09-17,12:07:25,6.475200E-12
 06-09-17,12:08:25,6.475600E-12
 06-09-17,12:09:25,6.476800E-12
 06-09-17,12:10:25,6.476800E-12
 06-09-17,12:11:25,6.475800E-12
 06-09-17,12:12:26,6.476500E-12
 06-09-17,12:13:26,6.476700E-12
 06-09-17,12:14:26,6.477400E-12
 06-09-17,12:15:26,6.476700E-12
 06-09-17,12:16:26,6.478300E-12
 06-09-17,12:17:26,6.475600E-12
 06-09-17,12:18:26,6.475300E-12
 06-09-17,12:19:27,6.476200E-12
 06-09-17,12:20:27,6.476300E-12
 06-09-17,12:21:27,6.476700E-12
 06-09-17,12:22:27,6.476400E-12
 06-09-17,12:23:27,6.476600E-12
 06-09-17,12:24:27,6.477600E-12
 06-09-17,12:25:27,6.476200E-12
 06-09-17,12:26:28,6.476800E-12
 06-09-17,12:27:28,6.479300E-12
 06-09-17,12:28:28,6.474500E-12
 06-09-17,12:29:28,6.476100E-12
 06-09-17,12:30:28,6.474200E-12
 06-09-17,12:31:28,6.476300E-12
 06-09-17,12:32:28,6.475000E-12
 06-09-17,12:33:28,6.477500E-12
 06-09-17,12:34:28,6.478500E-12
 06-09-17,12:35:28,6.479100E-12
 06-09-17,12:36:29,6.479500E-12
 06-09-17,12:37:29,6.479000E-12
 06-09-17,12:38:29,6.480000E-12
 06-09-17,12:39:29,6.478900E-12
 06-09-17,12:40:29,6.481500E-12
 06-09-17,12:41:29,6.480300E-12
 06-09-17,12:42:29,6.479200E-12
 06-09-17,12:43:29,6.484600E-12
 06-09-17,12:44:30,6.480300E-12
 06-09-17,12:45:30,6.479500E-12
 06-09-17,12:46:30,6.478800E-12
 06-09-17,12:47:30,6.479800E-12
 06-09-17,12:48:30,6.479600E-12
 06-09-17,12:49:30,6.480400E-12
 06-09-17,12:50:30,6.476800E-12
 06-09-17,12:51:30,6.479000E-12
 06-09-17,12:52:31,6.476200E-12
 06-09-17,12:53:31,6.481900E-12
 06-09-17,12:54:31,6.477600E-12
 06-09-17,12:55:31,6.478900E-12
 06-09-17,12:56:31,6.477500E-12
 06-09-17,12:57:31,6.476800E-12
 06-09-17,12:58:31,6.480200E-12
 06-09-17,12:59:32,6.475900E-12
 06-09-17,13:00:32,6.477000E-12
 06-09-17,13:01:32,6.478200E-12
 06-09-17,13:02:32,6.478300E-12
 06-09-17,13:03:32,6.479500E-12
 06-09-17,13:04:32,6.479000E-12
 06-09-17,13:05:32,6.477900E-12
 06-09-17,13:06:32,6.476700E-12
 06-09-17,13:07:32,6.478300E-12
 06-09-17,13:08:33,6.477700E-12
 06-09-17,13:09:33,6.479400E-12
 06-09-17,13:10:33,6.481100E-12
 06-09-17,13:11:33,6.481300E-12
 06-09-17,13:12:33,6.481100E-12
 06-09-17,13:13:33,6.483200E-12
 06-09-17,13:14:33,6.479400E-12
 06-09-17,13:15:33,6.480100E-12
 06-09-17,13:16:33,6.483100E-12
 06-09-17,13:17:33,6.483100E-12
 06-09-17,13:18:33,6.482800E-12
 06-09-17,13:19:34,6.483100E-12
 06-09-17,13:20:34,6.485400E-12
 06-09-17,13:21:34,6.484400E-12
 06-09-17,13:22:34,6.482200E-12
 06-09-17,13:23:34,6.484600E-12
 06-09-17,13:24:34,6.484500E-12
 06-09-17,13:25:35,6.482100E-12
 06-09-17,13:26:35,6.483900E-12
 06-09-17,13:27:35,6.482800E-12
 06-09-17,13:28:35,6.484400E-12
 06-09-17,13:29:35,6.483000E-12
 06-09-17,13:30:35,6.483400E-12
 06-09-17,13:31:36,6.485100E-12
 06-09-17,13:32:36,6.483400E-12
 06-09-17,13:33:36,6.483200E-12
 06-09-17,13:34:36,6.484700E-12
 06-09-17,13:35:36,6.483500E-12
 06-09-17,13:36:36,6.484800E-12
 06-09-17,13:37:36,6.486400E-12
 06-09-17,13:38:36,6.483100E-12
 06-09-17,13:39:36,6.484400E-12
 06-09-17,13:40:37,6.482400E-12
 06-09-17,13:41:37,6.483600E-12
 06-09-17,13:42:37,6.482400E-12
 06-09-17,13:43:37,6.485300E-12
 06-09-17,13:44:37,6.483100E-12
 06-09-17,13:45:37,6.481400E-12
 06-09-17,13:46:37,6.482800E-12
 06-09-17,13:47:37,6.483100E-12
 06-09-17,13:48:37,6.482600E-12
 06-09-17,13:49:37,6.482500E-12
 06-09-17,13:50:37,6.487400E-12
 06-09-17,13:51:37,6.485700E-12
 06-09-17,13:52:38,6.484000E-12
 06-09-17,13:53:38,6.484200E-12
 06-09-17,13:54:38,6.485400E-12
 06-09-17,13:55:38,6.485700E-12
 06-09-17,13:56:38,6.485700E-12
 06-09-17,13:57:38,6.484200E-12
 06-09-17,13:58:38,6.485200E-12
 06-09-17,13:59:38,6.485700E-12
 06-09-17,14:00:39,6.485600E-12
 06-09-17,14:01:39,6.484600E-12
 06-09-17,14:02:39,6.484800E-12
 06-09-17,14:03:39,6.483600E-12
 06-09-17,14:04:39,6.482600E-12
 06-09-17,14:05:39,6.482900E-12
 06-09-17,14:06:39,6.484200E-12
 06-09-17,14:07:39,6.485400E-12
 06-09-17,14:08:40,6.485000E-12
 06-09-17,14:09:40,6.486100E-12
 06-09-17,14:10:40,6.484700E-12
 06-09-17,14:11:40,6.485700E-12
 06-09-17,14:12:40,6.487000E-12
 06-09-17,14:13:40,6.485100E-12
 06-09-17,14:14:40,6.488000E-12
 06-09-17,14:15:40,6.490100E-12
 06-09-17,14:16:41,6.492600E-12
 06-09-17,14:17:41,6.494100E-12
 06-09-17,14:18:41,6.489200E-12
 06-09-17,14:19:41,6.491700E-12
 06-09-17,14:20:41,6.490800E-12
 06-09-17,14:21:41,6.490900E-12
 06-09-17,14:22:41,6.488700E-12
 06-09-17,14:23:41,6.488600E-12
 06-09-17,14:24:41,6.488400E-12
 06-09-17,14:25:41,6.487100E-12
 06-09-17,14:26:42,6.487300E-12
 06-09-17,14:27:42,6.487300E-12
 06-09-17,14:28:42,6.490300E-12
 06-09-17,14:29:42,6.492000E-12
 06-09-17,14:30:42,6.492700E-12
 06-09-17,14:31:42,6.490300E-12
 06-09-17,14:32:42,6.491600E-12
 06-09-17,14:33:42,6.490000E-12
 06-09-17,14:34:42,6.488800E-12
 06-09-17,14:35:42,6.491000E-12
 06-09-17,14:36:43,6.488400E-12
 06-09-17,14:37:43,6.833500E-12
 06-09-17,14:38:43,6.921600E-12
 06-09-17,14:39:43,6.811100E-12
 06-09-17,14:40:43,6.312400E-12
 06-09-17,14:41:43,5.734400E-12
 06-09-17,14:42:43,5.492600E-12
 06-09-17,14:43:43,5.118200E-12
 06-09-17,14:44:43,4.863800E-11
 06-09-17,14:45:44,4.777750E-11
 06-09-17,14:46:44,4.654270E-11
 06-09-17,14:47:44,4.624730E-11
 06-09-17,14:48:44,4.622970E-11
 06-09-17,14:49:44,4.619860E-11
 06-09-17,14:50:44,4.612390E-11
 06-09-17,14:51:44,4.602070E-11
 06-09-17,14:52:44,3.202210E-11
 06-09-17,14:53:45,1.785170E-11
 06-09-17,14:54:44,1.750540E-11
 06-09-17,14:55:45,2.042860E-11
 06-09-17,14:56:45,1.934330E-11
 06-09-17,14:57:45,1.795890E-11
 06-09-17,14:58:45,1.693510E-11
 06-09-17,14:59:45,1.646430E-11
 06-09-17,15:00:45,1.584850E-10
 06-09-17,15:01:46,1.547810E-10
 06-09-17,15:02:46,1.528930E-10
 06-09-17,15:03:46,1.495290E-10
 06-09-17,15:04:46,1.466410E-10
 06-09-17,15:05:46,1.452660E-10
 06-09-17,15:06:46,1.426160E-10
 06-09-17,15:07:46,1.399520E-10
 06-09-17,15:08:46,1.387400E-10
 06-09-17,15:09:46,1.365450E-10
 06-09-17,15:10:47,1.346030E-10
 06-09-17,15:11:47,1.337050E-10
 06-09-17,15:12:47,1.320270E-10
 06-09-17,15:13:47,1.304930E-10
 06-09-17,15:14:47,1.297680E-10
 06-09-17,15:15:47,1.282090E-10
 06-09-17,15:16:47,1.262370E-10
 06-09-17,15:17:47,1.254320E-10
 06-09-17,15:18:47,1.239990E-10
 06-09-17,15:19:47,1.227120E-10
 06-09-17,15:20:48,1.221230E-10
 06-09-17,15:21:48,1.209990E-10
 06-09-17,15:22:48,1.199610E-10
 06-09-17,15:23:48,1.194710E-10
 06-09-17,15:24:48,1.185560E-10
 06-09-17,15:25:48,1.176850E-10
 06-09-17,15:26:48,1.172520E-10
 06-09-17,15:27:49,1.164720E-10
 06-09-17,15:28:49,1.157290E-10
 06-09-17,15:29:49,1.153780E-10
 06-09-17,15:30:49,1.146760E-10
 06-09-17,15:31:49,1.140060E-10
 06-09-17,15:32:50,1.136660E-10
 06-09-17,15:33:50,1.130340E-10
 06-09-17,15:34:50,1.124040E-10
 06-09-17,15:35:50,1.121140E-10
 06-09-17,15:36:50,1.115150E-10
 06-09-17,15:37:50,1.109540E-10
 06-09-17,15:38:50,1.106900E-10
 06-09-17,15:39:50,1.101610E-10
 06-09-17,15:40:51,1.096560E-10
 06-09-17,15:41:51,1.094140E-10
 06-09-17,15:42:51,1.089320E-10
 06-09-17,15:43:51,1.084690E-10
 06-09-17,15:44:51,1.082480E-10
 06-09-17,15:45:51,1.078170E-10
 06-09-17,15:46:51,1.073730E-10
 06-09-17,15:47:51,1.071630E-10
 06-09-17,15:48:51,1.067420E-10
 06-09-17,15:49:52,1.063460E-10
 06-09-17,15:50:52,1.060580E-10
 06-09-17,15:51:52,1.053550E-10
 06-09-17,15:52:52,1.047350E-10
 06-09-17,15:53:52,1.044390E-10
 06-09-17,15:54:52,1.038820E-10
 06-09-17,15:55:53,1.033410E-10
 06-09-17,15:56:53,1.030840E-10
 06-09-17,15:57:53,1.025780E-10
 06-09-17,15:58:53,1.020650E-10
 06-09-17,15:59:53,1.018290E-10
 06-09-17,16:00:53,1.013150E-10
 06-09-17,16:01:53,1.008210E-10
 06-09-17,16:02:54,1.005640E-10
 06-09-17,16:03:54,1.000600E-10
 06-09-17,16:04:54,9.955700E-11
 06-09-17,16:05:54,9.929900E-11
 06-09-17,16:06:54,9.881200E-11
 06-09-17,16:07:54,9.831900E-11
 06-09-17,16:08:54,9.809000E-11
 06-09-17,16:09:54,9.760700E-11
 06-09-17,16:10:54,9.715700E-11
 06-09-17,16:11:54,9.691500E-11
 06-09-17,16:12:55,9.645500E-11
 06-09-17,16:13:55,9.601800E-11
 06-09-17,16:14:55,9.556600E-11
 06-09-17,16:15:55,9.533800E-11
 06-09-17,16:16:55,9.488000E-11
 06-09-17,16:17:55,9.443300E-11
 06-09-17,16:18:56,9.420200E-11
 06-09-17,16:19:56,9.372900E-11
 06-09-17,16:20:56,9.325100E-11
 06-09-17,16:21:56,9.300200E-11
 06-09-17,16:22:56,9.250900E-11
 06-09-17,16:23:56,9.198000E-11
 06-09-17,16:24:56,9.172500E-11
 06-09-17,16:25:56,9.118200E-11
 06-09-17,16:26:56,9.061800E-11
 06-09-17,16:27:57,9.031900E-11
 06-09-17,16:28:57,8.971200E-11
 06-09-17,16:29:57,8.907600E-11
 06-09-17,16:30:57,8.874500E-11
 06-09-17,16:31:57,8.807400E-11
 06-09-17,16:32:58,8.740500E-11
 06-09-17,16:33:58,8.705500E-11
 06-09-17,16:34:58,8.637400E-11
 06-09-17,16:35:58,8.569200E-11
 06-09-17,16:36:58,8.536700E-11
 06-09-17,16:37:59,8.470700E-11
 06-09-17,16:38:59,8.404900E-11
 06-09-17,16:39:59,8.373300E-11
 06-09-17,16:40:59,8.315900E-11
 06-09-17,16:41:59,8.260500E-11
 06-09-17,16:42:59,8.233300E-11
 06-09-17,16:44:00,8.179000E-11
 06-09-17,16:45:00,8.125300E-11
 06-09-17,16:46:00,8.099400E-11
 06-09-17,16:47:00,8.048800E-11
 06-09-17,16:48:00,8.000800E-11
 06-09-17,16:49:00,7.976800E-11
 06-09-17,16:50:00,7.930000E-11
 06-09-17,16:51:00,7.884100E-11
 06-09-17,16:52:00,7.863700E-11
 06-09-17,16:53:00,7.820500E-11
 06-09-17,16:54:00,7.778900E-11
 06-09-17,16:55:00,7.757800E-11
 06-09-17,16:56:01,7.719000E-11
 06-09-17,16:57:01,7.680300E-11
 06-09-17,16:58:01,7.661600E-11
 06-09-17,16:59:01,7.624000E-11
 06-09-17,17:00:01,7.587600E-11
 06-09-17,17:01:02,7.569400E-11
 06-09-17,17:02:02,7.534000E-11
 06-09-17,17:03:02,7.497900E-11
 06-09-17,17:04:02,7.481400E-11
 06-09-17,17:05:02,7.447400E-11
 06-09-17,17:06:02,7.412600E-11
 06-09-17,17:07:02,7.396700E-11
 06-09-17,17:08:02,7.364600E-11
 06-09-17,17:09:02,7.331900E-11
 06-09-17,17:10:02,7.315400E-11
 06-09-17,17:11:03,7.284500E-11
 06-09-17,17:12:03,7.252700E-11
