 20-05-17,00:00:20,0.003607
 20-05-17,00:01:20,0.003607
 20-05-17,00:02:20,0.003607
 20-05-17,00:03:20,0.003607
 20-05-17,00:04:20,0.003607
 20-05-17,00:05:20,0.003607
 20-05-17,00:06:20,0.003607
 20-05-17,00:07:20,0.003607
 20-05-17,00:08:20,0.003607
 20-05-17,00:09:21,0.005127
 20-05-17,00:10:21,0.003607
 20-05-17,00:11:21,0.003607
 20-05-17,00:12:21,0.003607
 20-05-17,00:13:21,0.003607
 20-05-17,00:14:21,0.003607
 20-05-17,00:15:21,0.005127
 20-05-17,00:16:21,0.003607
 20-05-17,00:17:21,0.005127
 20-05-17,00:18:21,0.003607
 20-05-17,00:19:21,0.003607
 20-05-17,00:20:21,0.003607
 20-05-17,00:21:21,0.003607
 20-05-17,00:22:21,0.003607
 20-05-17,00:23:21,0.003607
 20-05-17,00:24:21,0.003607
 20-05-17,00:25:21,0.003607
 20-05-17,00:26:21,0.003607
 20-05-17,00:27:21,0.003607
 20-05-17,00:28:21,0.003607
 20-05-17,00:29:21,0.005127
 20-05-17,00:30:21,0.003607
 20-05-17,00:31:21,0.003607
 20-05-17,00:32:21,0.003607
 20-05-17,00:33:21,0.003607
 20-05-17,00:34:22,0.005127
 20-05-17,00:35:22,0.003607
 20-05-17,00:36:22,0.003607
 20-05-17,00:37:22,0.003607
 20-05-17,00:38:22,0.003607
 20-05-17,00:39:22,0.003607
 20-05-17,00:40:22,0.003607
 20-05-17,00:41:22,0.003607
 20-05-17,00:42:22,0.003607
 20-05-17,00:43:22,0.005127
 20-05-17,00:44:22,0.003607
 20-05-17,00:45:22,0.003607
 20-05-17,00:46:22,0.003607
 20-05-17,00:47:22,0.003607
 20-05-17,00:48:22,0.003607
 20-05-17,00:49:22,0.003607
 20-05-17,00:50:22,0.003607
 20-05-17,00:51:22,0.003607
 20-05-17,00:52:22,0.003607
 20-05-17,00:53:22,0.005127
 20-05-17,00:54:22,0.003607
 20-05-17,00:55:22,0.003607
 20-05-17,00:56:22,0.003607
 20-05-17,00:57:22,0.003607
 20-05-17,00:58:23,0.003607
 20-05-17,00:59:23,0.003607
 20-05-17,01:00:23,0.003607
 20-05-17,01:01:23,0.003607
 20-05-17,01:02:23,0.003607
 20-05-17,01:03:23,0.003607
 20-05-17,01:04:23,0.003607
 20-05-17,01:05:23,0.003607
 20-05-17,01:06:23,0.003607
 20-05-17,01:07:23,0.003607
 20-05-17,01:08:23,0.003607
 20-05-17,01:09:23,0.003607
 20-05-17,01:10:23,0.003607
 20-05-17,01:11:23,0.003607
 20-05-17,01:12:23,0.003607
 20-05-17,01:13:23,0.003607
 20-05-17,01:14:23,0.003607
 20-05-17,01:15:23,0.003607
 20-05-17,01:16:23,0.005127
 20-05-17,01:17:23,0.003607
 20-05-17,01:18:23,0.003607
 20-05-17,01:19:23,0.005127
 20-05-17,01:20:23,0.005127
 20-05-17,01:21:23,0.003607
 20-05-17,01:22:24,0.003607
 20-05-17,01:23:24,0.003607
 20-05-17,01:24:24,0.003607
 20-05-17,01:25:24,0.003607
 20-05-17,01:26:24,0.003607
 20-05-17,01:27:24,0.005127
 20-05-17,01:28:24,0.003607
 20-05-17,01:29:24,0.003607
 20-05-17,01:30:24,0.003607
 20-05-17,01:31:24,0.003607
 20-05-17,01:32:24,0.003607
 20-05-17,01:33:24,0.003607
 20-05-17,01:34:24,0.003607
 20-05-17,01:35:24,0.003607
 20-05-17,01:36:24,0.003607
 20-05-17,01:37:24,0.005127
 20-05-17,01:38:24,0.003607
 20-05-17,01:39:24,0.003607
 20-05-17,01:40:24,0.003607
 20-05-17,01:41:24,0.003607
 20-05-17,01:42:24,0.003607
 20-05-17,01:43:24,0.003607
 20-05-17,01:44:24,0.003607
 20-05-17,01:45:24,0.003607
 20-05-17,01:46:24,0.003607
 20-05-17,01:47:25,0.003607
 20-05-17,01:48:25,0.003607
 20-05-17,01:49:25,0.003607
 20-05-17,01:50:25,0.003607
 20-05-17,01:51:25,0.003607
 20-05-17,01:52:25,0.003607
 20-05-17,01:53:25,0.003607
 20-05-17,01:54:25,0.005127
 20-05-17,01:55:25,0.003607
 20-05-17,01:56:25,0.005127
 20-05-17,01:57:25,0.003607
 20-05-17,01:58:25,0.003607
 20-05-17,01:59:25,0.003607
 20-05-17,02:00:25,0.003607
 20-05-17,02:01:25,0.003607
 20-05-17,02:02:25,0.003607
 20-05-17,02:03:25,0.003607
 20-05-17,02:04:25,0.003607
 20-05-17,02:05:25,0.003607
 20-05-17,02:06:25,0.003607
 20-05-17,02:07:25,0.003607
 20-05-17,02:08:25,0.003607
 20-05-17,02:09:25,0.003607
 20-05-17,02:10:25,0.003607
 20-05-17,02:11:25,0.003607
 20-05-17,02:12:26,0.003607
 20-05-17,02:13:26,0.005127
 20-05-17,02:14:26,0.003607
 20-05-17,02:15:26,0.003607
 20-05-17,02:16:26,0.003607
 20-05-17,02:17:26,0.003607
 20-05-17,02:18:26,0.003607
 20-05-17,02:19:26,0.003607
 20-05-17,02:20:26,0.003607
 20-05-17,02:21:26,0.003607
 20-05-17,02:22:26,0.003607
 20-05-17,02:23:26,0.003607
 20-05-17,02:24:26,0.003607
 20-05-17,02:25:26,0.003607
 20-05-17,02:26:26,0.003607
 20-05-17,02:27:26,0.003607
 20-05-17,02:28:26,0.003607
 20-05-17,02:29:26,0.003607
 20-05-17,02:30:26,0.003607
 20-05-17,02:31:26,0.003607
 20-05-17,02:32:26,0.003607
 20-05-17,02:33:26,0.003607
 20-05-17,02:34:26,0.003607
 20-05-17,02:35:27,0.003607
 20-05-17,02:36:27,0.005127
 20-05-17,02:37:27,0.003607
 20-05-17,02:38:27,0.003607
 20-05-17,02:39:27,0.003607
 20-05-17,02:40:27,0.003607
 20-05-17,02:41:27,0.003607
 20-05-17,02:42:27,0.005127
 20-05-17,02:43:27,0.003607
 20-05-17,02:44:27,0.003607
 20-05-17,02:45:27,0.005127
 20-05-17,02:46:27,0.003607
 20-05-17,02:47:27,0.003607
 20-05-17,02:48:27,0.003607
 20-05-17,02:49:27,0.003607
 20-05-17,02:50:27,0.003607
 20-05-17,02:51:27,0.003607
 20-05-17,02:52:27,0.003607
 20-05-17,02:53:27,0.003607
 20-05-17,02:54:27,0.003607
 20-05-17,02:55:27,0.003607
 20-05-17,02:56:27,0.003607
 20-05-17,02:57:27,0.003607
 20-05-17,02:58:27,0.005127
 20-05-17,02:59:28,0.005127
 20-05-17,03:00:28,0.005127
 20-05-17,03:01:28,0.003607
 20-05-17,03:02:28,0.003607
 20-05-17,03:03:28,0.003607
 20-05-17,03:04:28,0.003607
 20-05-17,03:05:28,0.005127
 20-05-17,03:06:28,0.003607
 20-05-17,03:07:28,0.003607
 20-05-17,03:08:28,0.003607
 20-05-17,03:09:28,0.003607
 20-05-17,03:10:28,0.003607
 20-05-17,03:11:28,0.003607
 20-05-17,03:12:28,0.005127
 20-05-17,03:13:28,0.003607
 20-05-17,03:14:28,0.003607
 20-05-17,03:15:28,0.003607
 20-05-17,03:16:28,0.003607
 20-05-17,03:17:28,0.003607
 20-05-17,03:18:28,0.003607
 20-05-17,03:19:28,0.003607
 20-05-17,03:20:28,0.003607
 20-05-17,03:21:28,0.003607
 20-05-17,03:22:28,0.003607
 20-05-17,03:23:28,0.003607
 20-05-17,03:24:29,0.005127
 20-05-17,03:25:29,0.005127
 20-05-17,03:26:29,0.003607
 20-05-17,03:27:29,0.003607
 20-05-17,03:28:29,0.003607
 20-05-17,03:29:29,0.003607
 20-05-17,03:30:29,0.003607
 20-05-17,03:31:29,0.003607
 20-05-17,03:32:29,0.003607
 20-05-17,03:33:29,0.003607
 20-05-17,03:34:29,0.003607
 20-05-17,03:35:29,0.003607
 20-05-17,03:36:29,0.003607
 20-05-17,03:37:29,0.003607
 20-05-17,03:38:29,0.003607
 20-05-17,03:39:29,0.003607
 20-05-17,03:40:29,0.003607
 20-05-17,03:41:29,0.005127
 20-05-17,03:42:29,0.003607
 20-05-17,03:43:29,0.003607
 20-05-17,03:44:29,0.003607
 20-05-17,03:45:29,0.003607
 20-05-17,03:46:29,0.005127
 20-05-17,03:47:29,0.003607
 20-05-17,03:48:29,0.003607
 20-05-17,03:49:30,0.003607
 20-05-17,03:50:30,0.003607
 20-05-17,03:51:30,0.003607
 20-05-17,03:52:30,0.003607
 20-05-17,03:53:30,0.003607
 20-05-17,03:54:30,0.003607
 20-05-17,03:55:30,0.003607
 20-05-17,03:56:30,0.003607
 20-05-17,03:57:30,0.003607
 20-05-17,03:58:30,0.003607
 20-05-17,03:59:30,0.003607
 20-05-17,04:00:30,0.003607
 20-05-17,04:01:30,0.003607
 20-05-17,04:02:30,0.003607
 20-05-17,04:03:30,0.003607
 20-05-17,04:04:30,0.003607
 20-05-17,04:05:30,0.003607
 20-05-17,04:06:30,0.005127
 20-05-17,04:07:30,0.003607
 20-05-17,04:08:30,0.003607
 20-05-17,04:09:30,0.003607
 20-05-17,04:10:30,0.003607
 20-05-17,04:11:30,0.005127
 20-05-17,04:12:30,0.003607
 20-05-17,04:13:30,0.003607
 20-05-17,04:14:31,0.003607
 20-05-17,04:15:31,0.003607
 20-05-17,04:16:31,0.003607
 20-05-17,04:17:31,0.003607
 20-05-17,04:18:31,0.003607
 20-05-17,04:19:31,0.003607
 20-05-17,04:20:31,0.003607
 20-05-17,04:21:31,0.003607
 20-05-17,04:22:31,0.003607
 20-05-17,04:23:31,0.005127
 20-05-17,04:24:31,0.003607
 20-05-17,04:25:31,0.003607
 20-05-17,04:26:31,0.003607
 20-05-17,04:27:31,0.003607
 20-05-17,04:28:31,0.003607
 20-05-17,04:29:31,0.003607
 20-05-17,04:30:31,0.003607
 20-05-17,04:31:31,0.003607
 20-05-17,04:32:31,0.005127
 20-05-17,04:33:31,0.003607
 20-05-17,04:34:31,0.005127
 20-05-17,04:35:31,0.003607
 20-05-17,04:36:31,0.003607
 20-05-17,04:37:31,0.003607
 20-05-17,04:38:32,0.003607
 20-05-17,04:39:32,0.003607
 20-05-17,04:40:32,0.003607
 20-05-17,04:41:32,0.003607
 20-05-17,04:42:32,0.003607
 20-05-17,04:43:32,0.003607
 20-05-17,04:44:32,0.003607
 20-05-17,04:45:32,0.003607
 20-05-17,04:46:32,0.003607
 20-05-17,04:47:32,0.005127
 20-05-17,04:48:32,0.005127
 20-05-17,04:49:32,0.003607
 20-05-17,04:50:32,0.005127
 20-05-17,04:51:32,0.003607
 20-05-17,04:52:32,0.005127
 20-05-17,04:53:32,0.003607
 20-05-17,04:54:32,0.003607
 20-05-17,04:55:32,0.005127
 20-05-17,04:56:32,0.003607
 20-05-17,04:57:32,0.003607
 20-05-17,04:58:32,0.003607
 20-05-17,04:59:32,0.005127
 20-05-17,05:00:32,0.003607
 20-05-17,05:01:33,0.003607
 20-05-17,05:02:33,0.005127
 20-05-17,05:03:33,0.005127
 20-05-17,05:04:33,0.005127
 20-05-17,05:05:33,0.003607
 20-05-17,05:06:33,0.003607
 20-05-17,05:07:33,0.003607
 20-05-17,05:08:33,0.003607
 20-05-17,05:09:33,0.003607
 20-05-17,05:10:33,0.003607
 20-05-17,05:11:33,0.003607
 20-05-17,05:12:33,0.003607
 20-05-17,05:13:33,0.003607
 20-05-17,05:14:33,0.003607
 20-05-17,05:15:33,0.005127
 20-05-17,05:16:33,0.003607
 20-05-17,05:17:33,0.003607
 20-05-17,05:18:33,0.003607
 20-05-17,05:19:33,0.003607
 20-05-17,05:20:33,0.003607
 20-05-17,05:21:33,0.003607
 20-05-17,05:22:33,0.003607
 20-05-17,05:23:33,0.003607
 20-05-17,05:24:33,0.003607
 20-05-17,05:25:33,0.003607
 20-05-17,05:26:33,0.003607
 20-05-17,05:27:34,0.003607
 20-05-17,05:28:34,0.003607
 20-05-17,05:29:34,0.003607
 20-05-17,05:30:34,0.003607
 20-05-17,05:31:34,0.003607
 20-05-17,05:32:34,0.005127
 20-05-17,05:33:34,0.003607
 20-05-17,05:34:34,0.003607
 20-05-17,05:35:34,0.003607
 20-05-17,05:36:34,0.003607
 20-05-17,05:37:34,0.003607
 20-05-17,05:38:34,0.003607
 20-05-17,05:39:34,0.003607
 20-05-17,05:40:34,0.003607
 20-05-17,05:41:34,0.003607
 20-05-17,05:42:34,0.003607
 20-05-17,05:43:34,0.003607
 20-05-17,05:44:34,0.003607
 20-05-17,05:45:34,0.003607
 20-05-17,05:46:34,0.003607
 20-05-17,05:47:34,0.003607
 20-05-17,05:48:34,0.003607
 20-05-17,05:49:34,0.003607
 20-05-17,05:50:34,0.003607
 20-05-17,05:51:35,0.003607
 20-05-17,05:52:35,0.003607
 20-05-17,05:53:35,0.003607
 20-05-17,05:54:35,0.005127
 20-05-17,05:55:35,0.003607
 20-05-17,05:56:35,0.003607
 20-05-17,05:57:35,0.003607
 20-05-17,05:58:35,0.003607
 20-05-17,05:59:35,0.005127
 20-05-17,06:00:35,0.003607
 20-05-17,06:01:35,0.003607
 20-05-17,06:02:35,0.003607
 20-05-17,06:03:35,0.003607
 20-05-17,06:04:35,0.003607
 20-05-17,06:05:35,0.003607
 20-05-17,06:06:35,0.003607
 20-05-17,06:07:35,0.005127
 20-05-17,06:08:35,0.003607
 20-05-17,06:09:35,0.003607
 20-05-17,06:10:35,0.003607
 20-05-17,06:11:35,0.003607
 20-05-17,06:12:35,0.003607
 20-05-17,06:13:35,0.003607
 20-05-17,06:14:35,0.003607
 20-05-17,06:15:36,0.003607
 20-05-17,06:16:36,0.003607
 20-05-17,06:17:36,0.003607
 20-05-17,06:18:36,0.003607
 20-05-17,06:19:36,0.003607
 20-05-17,06:20:36,0.003607
 20-05-17,06:21:36,0.003607
 20-05-17,06:22:36,0.003607
 20-05-17,06:23:36,0.005127
 20-05-17,06:24:36,0.003607
 20-05-17,06:25:36,0.003607
 20-05-17,06:26:36,0.005127
 20-05-17,06:27:36,0.003607
 20-05-17,06:28:36,0.003607
 20-05-17,06:29:36,0.003607
 20-05-17,06:30:36,0.003607
 20-05-17,06:31:36,0.003607
 20-05-17,06:32:36,0.003607
 20-05-17,06:33:36,0.003607
 20-05-17,06:34:36,0.003607
 20-05-17,06:35:36,0.003607
 20-05-17,06:36:36,0.003607
 20-05-17,06:37:36,0.003607
 20-05-17,06:38:36,0.003607
 20-05-17,06:39:36,0.003607
 20-05-17,06:40:37,0.003607
 20-05-17,06:41:37,0.003607
 20-05-17,06:42:37,0.003607
 20-05-17,06:43:37,0.003607
 20-05-17,06:44:37,0.003607
 20-05-17,06:45:37,0.003607
 20-05-17,06:46:37,0.003607
 20-05-17,06:47:37,0.003607
 20-05-17,06:48:37,0.003607
 20-05-17,06:49:37,0.003607
 20-05-17,06:50:37,0.003607
 20-05-17,06:51:37,0.003607
 20-05-17,06:52:37,0.003607
 20-05-17,06:53:37,0.003607
 20-05-17,06:54:37,0.003607
 20-05-17,06:55:38,0.003607
 20-05-17,06:56:38,0.003607
 20-05-17,06:57:38,0.003607
 20-05-17,06:58:38,0.003607
 20-05-17,06:59:38,0.003607
 20-05-17,07:00:38,0.005127
 20-05-17,07:01:38,0.003607
 20-05-17,07:02:38,0.005127
 20-05-17,07:03:38,0.003607
 20-05-17,07:04:38,0.003607
 20-05-17,07:05:38,0.003607
 20-05-17,07:06:38,0.005127
 20-05-17,07:07:38,0.003607
 20-05-17,07:08:38,0.003607
 20-05-17,07:09:38,0.003607
 20-05-17,07:10:38,0.003607
 20-05-17,07:11:38,0.003607
 20-05-17,07:12:38,0.003607
 20-05-17,07:13:38,0.003607
 20-05-17,07:14:38,0.003607
 20-05-17,07:15:38,0.003607
 20-05-17,07:16:38,0.003607
 20-05-17,07:17:38,0.005127
 20-05-17,07:18:38,0.005127
 20-05-17,07:19:39,0.005127
 20-05-17,07:20:39,0.003607
 20-05-17,07:21:39,0.003607
 20-05-17,07:22:39,0.005127
 20-05-17,07:23:39,0.003607
 20-05-17,07:24:39,0.003607
 20-05-17,07:25:39,0.003607
 20-05-17,07:26:39,0.003607
 20-05-17,07:27:39,0.003607
 20-05-17,07:28:39,0.003607
 20-05-17,07:29:39,0.003607
 20-05-17,07:30:39,0.005127
 20-05-17,07:31:39,0.003607
 20-05-17,07:32:39,0.003607
 20-05-17,07:33:39,0.003607
 20-05-17,07:34:39,0.003607
 20-05-17,07:35:39,0.003607
 20-05-17,07:36:39,0.003607
 20-05-17,07:37:39,0.003607
 20-05-17,07:38:39,0.003607
 20-05-17,07:39:39,0.005127
 20-05-17,07:40:39,0.003607
 20-05-17,07:41:39,0.003607
 20-05-17,07:42:39,0.003607
 20-05-17,07:43:40,0.005127
 20-05-17,07:44:40,0.003607
 20-05-17,07:45:40,0.003607
 20-05-17,07:46:40,0.003607
 20-05-17,07:47:40,0.003607
 20-05-17,07:48:40,0.003607
 20-05-17,07:49:40,0.003607
 20-05-17,07:50:40,0.003607
 20-05-17,07:51:40,0.003607
 20-05-17,07:52:40,0.006648
 20-05-17,07:53:40,0.011208
 20-05-17,07:54:40,0.003607
 20-05-17,07:55:40,0.015769
 20-05-17,07:56:40,0.005127
 20-05-17,07:57:40,0.008168
 20-05-17,07:58:40,0.006648
 20-05-17,07:59:40,0.003607
 20-05-17,08:00:40,0.015769
 20-05-17,08:01:40,0.003607
 20-05-17,08:02:40,0.009688
 20-05-17,08:03:40,0.003607
 20-05-17,08:04:40,0.003607
 20-05-17,08:05:40,0.020329
 20-05-17,08:06:40,0.003607
 20-05-17,08:07:40,0.012728
 20-05-17,08:08:41,0.003607
 20-05-17,08:09:41,0.003607
 20-05-17,08:10:41,0.020329
 20-05-17,08:11:41,0.003607
 20-05-17,08:12:41,0.006648
 20-05-17,08:13:41,0.003607
 20-05-17,08:14:41,0.005127
 20-05-17,08:15:41,0.018809
 20-05-17,08:16:41,0.003607
 20-05-17,08:17:41,0.008168
 20-05-17,08:18:41,0.003607
 20-05-17,08:19:41,0.005127
 20-05-17,08:20:41,0.014249
 20-05-17,08:21:41,0.003607
 20-05-17,08:22:41,0.012728
 20-05-17,08:23:41,0.003607
 20-05-17,08:24:41,0.006648
 20-05-17,08:25:41,0.008168
 20-05-17,08:26:41,0.003607
 20-05-17,08:27:41,0.015769
 20-05-17,08:28:41,0.003607
 20-05-17,08:29:41,0.008168
 20-05-17,08:30:41,0.005127
 20-05-17,08:31:41,0.003607
 20-05-17,08:32:41,0.017289
 20-05-17,08:33:42,0.003607
 20-05-17,08:34:42,0.011208
 20-05-17,08:35:42,0.003607
 20-05-17,08:36:42,0.003607
 20-05-17,08:37:42,0.018809
 20-05-17,08:38:42,0.003607
 20-05-17,08:39:42,0.012728
 20-05-17,08:40:42,0.003607
 20-05-17,08:41:42,0.003607
 20-05-17,08:42:42,0.018809
 20-05-17,08:43:42,0.003607
 20-05-17,08:44:42,0.008168
 20-05-17,08:45:42,0.003607
 20-05-17,08:46:42,0.003607
 20-05-17,08:47:42,0.018809
 20-05-17,08:48:42,0.003607
 20-05-17,08:49:42,0.011208
 20-05-17,08:50:42,0.003607
 20-05-17,08:51:42,0.006648
 20-05-17,08:52:42,0.009688
 20-05-17,08:53:42,0.003607
 20-05-17,08:54:42,0.014249
 20-05-17,08:55:42,0.003607
 20-05-17,08:56:42,0.008168
 20-05-17,08:57:42,0.003607
 20-05-17,08:58:43,0.003607
 20-05-17,08:59:43,0.015769
 20-05-17,09:00:43,0.003607
 20-05-17,09:01:43,0.009688
 20-05-17,09:02:43,0.003607
 20-05-17,09:03:43,0.003607
 20-05-17,09:04:43,0.020329
 20-05-17,09:05:43,0.005127
 20-05-17,09:06:43,0.011208
 20-05-17,09:07:43,0.003607
 20-05-17,09:08:43,0.003607
 20-05-17,09:09:43,0.018809
 20-05-17,09:10:43,0.003607
 20-05-17,09:11:43,0.009688
 20-05-17,09:12:43,0.003607
 20-05-17,09:13:43,0.005127
 20-05-17,09:14:43,0.014249
 20-05-17,09:15:43,0.005127
 20-05-17,09:16:43,0.012728
 20-05-17,09:17:43,0.005127
 20-05-17,09:18:43,0.008168
 20-05-17,09:19:43,0.003607
 20-05-17,09:20:43,0.032491
 20-05-17,09:21:43,0.034011
 20-05-17,09:22:43,0.034011
 20-05-17,09:23:43,0.037052
 20-05-17,09:24:44,0.038572
 20-05-17,09:25:44,0.040092
 20-05-17,09:26:44,0.043132
 20-05-17,09:27:44,0.044652
 20-05-17,09:28:44,0.046173
 20-05-17,09:29:44,0.047693
 20-05-17,09:30:44,0.049213
 20-05-17,09:31:44,0.049213
 20-05-17,09:32:44,0.050733
 20-05-17,09:33:44,0.049213
 20-05-17,09:34:44,0.047693
 20-05-17,09:35:44,0.046173
 20-05-17,09:36:44,0.046173
 20-05-17,09:37:44,0.046173
 20-05-17,09:38:44,0.044652
 20-05-17,09:39:44,0.044652
 20-05-17,09:40:44,0.046173
 20-05-17,09:41:44,0.046173
 20-05-17,09:42:44,0.047693
 20-05-17,09:43:44,0.046173
 20-05-17,09:44:44,0.047693
 20-05-17,09:45:44,0.046173
 20-05-17,09:46:44,0.047693
 20-05-17,09:47:44,0.049213
 20-05-17,09:48:44,0.049213
 20-05-17,09:49:45,0.052253
 20-05-17,09:50:45,0.055294
 20-05-17,09:51:45,0.242277
 20-05-17,09:52:45,1.122468
 20-05-17,09:53:45,0.736340
 20-05-17,09:54:45,0.538715
 20-05-17,09:55:45,0.485508
 20-05-17,09:56:45,0.474867
 20-05-17,09:57:45,0.447503
 20-05-17,09:58:45,0.455104
 20-05-17,09:59:45,0.608644
 20-05-17,10:00:45,0.528073
 20-05-17,10:01:45,0.514392
 20-05-17,10:02:45,0.476387
 20-05-17,10:03:45,0.455104
 20-05-17,10:04:45,0.514392
 20-05-17,10:05:45,0.543275
 20-05-17,10:06:45,0.528073
 20-05-17,10:07:45,0.528073
 20-05-17,10:08:45,0.518952
 20-05-17,10:09:45,0.509831
 20-05-17,10:10:45,0.512872
 20-05-17,10:11:45,0.531114
 20-05-17,10:12:45,0.550876
 20-05-17,10:13:46,0.570639
 20-05-17,10:14:46,0.573679
 20-05-17,10:15:46,0.573679
 20-05-17,10:16:46,0.578240
 20-05-17,10:17:46,0.585841
 20-05-17,10:18:46,0.593442
 20-05-17,10:19:46,0.602563
 20-05-17,10:20:46,0.601043
 20-05-17,10:21:46,0.645128
 20-05-17,10:22:46,0.674012
 20-05-17,10:23:46,0.696815
 20-05-17,10:24:46,0.739380
 20-05-17,10:25:46,0.783466
 20-05-17,10:26:46,0.860995
 20-05-17,10:27:46,0.930924
 20-05-17,10:28:46,1.009974
 20-05-17,10:29:46,1.082943
 20-05-17,10:30:46,1.125509
 20-05-17,10:31:46,1.122468
 20-05-17,10:32:46,1.102706
 20-05-17,10:33:46,1.092065
 20-05-17,10:34:46,1.085984
 20-05-17,10:35:46,1.242563
 20-05-17,10:36:46,1.146791
 20-05-17,10:37:46,1.130069
 20-05-17,10:38:46,1.114867
 20-05-17,10:39:47,1.084464
 20-05-17,10:40:47,1.089024
 20-05-17,10:41:47,1.090544
 20-05-17,10:42:47,1.104226
 20-05-17,10:43:47,1.301851
 20-05-17,10:44:47,1.178715
 20-05-17,10:45:47,1.187837
 20-05-17,10:46:47,1.128549
 20-05-17,10:47:47,1.239523
 20-05-17,10:48:47,1.073822
 20-05-17,10:49:47,1.297290
 20-05-17,10:50:47,1.104226
 20-05-17,10:51:47,1.352017
 20-05-17,10:52:47,1.025176
 20-05-17,10:53:47,1.583086
 20-05-17,10:54:47,1.063181
 20-05-17,10:55:47,1.583086
 20-05-17,10:56:47,1.041898
 20-05-17,10:57:47,1.429547
 20-05-17,10:58:47,1.051019
 20-05-17,10:59:47,1.304891
 20-05-17,11:00:47,1.054060
 20-05-17,11:01:47,1.297290
 20-05-17,11:02:47,1.057100
 20-05-17,11:03:47,1.291210
 20-05-17,11:04:48,1.073822
 20-05-17,11:05:48,1.318573
 20-05-17,11:06:48,1.054060
 20-05-17,11:07:48,1.341376
 20-05-17,11:08:48,1.070782
 20-05-17,11:09:48,1.283609
 20-05-17,11:10:48,1.084464
 20-05-17,11:11:48,1.251685
 20-05-17,11:12:48,1.093585
 20-05-17,11:13:48,1.231922
 20-05-17,11:14:48,1.116388
 20-05-17,11:15:48,1.239523
 20-05-17,11:16:48,1.131589
 20-05-17,11:17:48,1.242563
 20-05-17,11:18:48,1.114867
 20-05-17,11:19:48,1.250164
 20-05-17,11:20:48,1.128549
 20-05-17,11:21:48,1.285129
 20-05-17,11:22:48,1.127029
 20-05-17,11:23:48,1.321613
 20-05-17,11:24:48,1.102706
 20-05-17,11:25:48,1.359618
 20-05-17,11:26:48,1.113347
 20-05-17,11:27:48,1.352017
 20-05-17,11:28:49,1.216720
 20-05-17,11:29:49,1.583086
 20-05-17,11:30:49,1.329214
 20-05-17,11:31:49,1.583086
 20-05-17,11:32:49,1.362659
 20-05-17,11:33:49,1.583086
 20-05-17,11:34:49,1.306412
 20-05-17,11:35:49,1.456911
 20-05-17,11:36:49,1.583086
 20-05-17,11:37:49,1.434108
 20-05-17,11:38:49,1.520759
 20-05-17,11:39:49,1.467552
 20-05-17,11:40:49,1.472112
 20-05-17,11:41:49,1.583086
 20-05-17,11:42:49,1.488835
 20-05-17,11:43:49,1.247124
 20-05-17,11:44:49,1.488835
 20-05-17,11:45:49,1.497956
 20-05-17,11:46:49,1.298811
 20-05-17,11:47:49,1.583086
 20-05-17,11:48:49,1.201518
 20-05-17,11:49:49,1.437148
 20-05-17,11:50:49,1.330735
 20-05-17,11:51:49,1.469072
 20-05-17,11:52:49,1.177195
 20-05-17,11:53:50,1.432587
 20-05-17,11:54:50,1.333775
 20-05-17,11:55:50,1.382421
 20-05-17,11:56:50,1.475153
 20-05-17,11:57:50,1.268407
 20-05-17,11:58:50,1.583086
 20-05-17,11:59:50,1.231922
 20-05-17,12:00:50,1.583086
 20-05-17,12:01:50,1.537481
 20-05-17,12:02:50,1.583086
 20-05-17,12:03:50,1.583086
 20-05-17,12:04:50,1.374820
 20-05-17,12:05:50,1.230402
 20-05-17,12:06:50,0.398857
 20-05-17,12:07:50,0.632967
 20-05-17,12:08:50,0.701375
 20-05-17,12:09:50,0.701375
 20-05-17,12:10:50,0.713537
 20-05-17,12:11:50,0.710496
 20-05-17,12:12:50,0.708976
 20-05-17,12:13:50,0.696815
 20-05-17,12:14:50,0.693774
 20-05-17,12:15:50,0.686173
 20-05-17,12:16:50,0.677052
 20-05-17,12:17:50,0.675532
 20-05-17,12:18:50,0.663370
 20-05-17,12:19:51,0.649689
 20-05-17,12:20:51,0.636007
 20-05-17,12:21:51,0.625366
 20-05-17,12:22:51,0.608644
 20-05-17,12:23:51,0.588881
 20-05-17,12:24:51,0.579760
 20-05-17,12:25:51,0.572159
 20-05-17,12:26:51,0.553917
 20-05-17,12:27:51,0.549356
 20-05-17,12:28:51,0.538715
 20-05-17,12:29:51,0.488548
 20-05-17,12:30:51,0.552396
 20-05-17,12:31:51,0.544796
 20-05-17,12:32:51,0.532634
 20-05-17,12:33:51,0.559997
 20-05-17,12:34:51,0.505271
 20-05-17,12:35:51,0.511351
 20-05-17,12:36:51,0.508311
 20-05-17,12:37:51,0.502230
 20-05-17,12:38:51,0.499190
 20-05-17,12:39:51,0.494629
 20-05-17,12:40:51,0.455104
 20-05-17,12:41:51,0.456624
 20-05-17,12:42:51,0.439902
 20-05-17,12:43:51,0.438382
 20-05-17,12:44:51,0.453584
 20-05-17,12:45:52,0.414059
 20-05-17,12:46:52,0.406458
 20-05-17,12:47:52,0.411019
 20-05-17,12:48:52,0.418620
 20-05-17,12:49:52,0.423180
 20-05-17,12:50:52,0.427741
 20-05-17,12:51:52,0.436862
 20-05-17,12:52:52,0.444463
 20-05-17,12:53:52,0.438382
 20-05-17,12:54:52,0.430781
 20-05-17,12:55:52,0.435342
 20-05-17,12:56:52,0.411019
 20-05-17,12:57:52,0.412539
 20-05-17,12:58:52,0.391256
 20-05-17,12:59:52,0.395817
 20-05-17,13:00:52,0.383655
 20-05-17,13:01:52,0.382135
 20-05-17,13:02:52,0.374534
 20-05-17,13:03:52,0.380615
 20-05-17,13:04:52,0.380615
 20-05-17,13:05:52,0.368453
 20-05-17,13:06:52,0.380615
 20-05-17,13:07:52,0.371494
 20-05-17,13:08:52,0.369973
 20-05-17,13:09:53,0.371494
 20-05-17,13:10:53,0.368453
 20-05-17,13:11:53,0.357812
 20-05-17,13:12:53,0.351731
 20-05-17,13:13:53,0.344130
 20-05-17,13:14:53,0.338049
 20-05-17,13:15:53,0.318287
 20-05-17,13:16:53,0.315247
 20-05-17,13:17:53,0.386696
 20-05-17,13:18:53,0.611684
 20-05-17,13:19:53,0.646648
 20-05-17,13:20:53,0.563038
 20-05-17,13:21:53,0.436862
 20-05-17,13:22:53,0.474867
 20-05-17,13:23:53,0.663370
 20-05-17,13:24:53,0.689214
 20-05-17,13:25:53,0.684653
 20-05-17,13:26:53,0.683133
 20-05-17,13:27:53,0.680093
 20-05-17,13:28:53,0.677052
 20-05-17,13:29:53,0.672492
 20-05-17,13:30:53,0.669451
 20-05-17,13:31:53,0.660330
 20-05-17,13:32:53,0.658810
 20-05-17,13:33:53,0.660330
 20-05-17,13:34:54,0.654249
 20-05-17,13:35:54,0.655770
 20-05-17,13:36:54,0.660330
 20-05-17,13:37:54,0.663370
 20-05-17,13:38:54,0.664891
 20-05-17,13:39:54,0.666411
 20-05-17,13:40:54,0.672492
 20-05-17,13:41:54,0.674012
 20-05-17,13:42:54,0.677052
 20-05-17,13:43:54,0.680093
 20-05-17,13:44:54,0.681613
 20-05-17,13:45:54,0.681613
 20-05-17,13:46:54,0.684653
 20-05-17,13:47:54,0.684653
 20-05-17,13:48:54,0.687694
 20-05-17,13:49:54,0.683133
 20-05-17,13:50:54,0.683133
 20-05-17,13:51:54,0.683133
 20-05-17,13:52:54,0.674012
 20-05-17,13:53:54,0.674012
 20-05-17,13:54:54,0.669451
 20-05-17,13:55:54,0.669451
 20-05-17,13:56:54,0.661850
 20-05-17,13:57:54,0.661850
 20-05-17,13:58:54,0.661850
 20-05-17,13:59:54,0.661850
 20-05-17,14:00:54,0.658810
 20-05-17,14:01:54,0.655770
 20-05-17,14:02:54,0.657290
 20-05-17,14:03:54,0.657290
 20-05-17,14:04:54,0.658810
 20-05-17,14:05:54,0.661850
 20-05-17,14:06:54,0.657290
 20-05-17,14:07:54,0.663370
 20-05-17,14:08:54,0.660330
 20-05-17,14:09:54,0.663370
 20-05-17,14:10:54,0.663370
 20-05-17,14:11:54,0.663370
 20-05-17,14:12:54,0.664891
 20-05-17,14:13:54,0.664891
 20-05-17,14:14:54,0.664891
 20-05-17,14:15:54,0.666411
 20-05-17,14:16:54,0.664891
 20-05-17,14:17:54,0.669451
 20-05-17,14:18:54,0.667931
 20-05-17,14:19:54,0.672492
 20-05-17,14:20:55,0.672492
 20-05-17,14:21:55,0.677052
 20-05-17,14:22:55,0.675532
 20-05-17,14:23:55,0.680093
 20-05-17,14:24:55,0.681613
 20-05-17,14:25:55,0.680093
 20-05-17,14:26:55,0.681613
 20-05-17,14:27:55,0.683133
 20-05-17,14:28:55,0.680093
 20-05-17,14:29:55,0.678572
 20-05-17,14:30:55,0.677052
 20-05-17,14:31:55,0.674012
 20-05-17,14:32:55,0.675532
 20-05-17,14:33:55,0.672492
 20-05-17,14:34:55,0.672492
 20-05-17,14:35:55,0.667931
 20-05-17,14:36:55,0.666411
 20-05-17,14:37:55,0.663370
 20-05-17,14:38:55,0.661850
 20-05-17,14:39:55,0.657290
 20-05-17,14:40:55,0.655770
 20-05-17,14:41:55,0.654249
 20-05-17,14:42:55,0.654249
 20-05-17,14:43:55,0.654249
 20-05-17,14:44:55,0.652729
 20-05-17,14:45:55,0.652729
 20-05-17,14:46:55,0.654249
 20-05-17,14:47:55,0.655770
 20-05-17,14:48:55,0.655770
 20-05-17,14:49:55,0.654249
 20-05-17,14:50:55,0.657290
 20-05-17,14:51:55,0.658810
 20-05-17,14:52:55,0.660330
 20-05-17,14:53:55,0.658810
 20-05-17,14:54:55,0.661850
 20-05-17,14:55:55,0.660330
 20-05-17,14:56:55,0.663370
 20-05-17,14:57:55,0.663370
 20-05-17,14:58:55,0.664891
 20-05-17,14:59:55,0.666411
 20-05-17,15:00:55,0.667931
 20-05-17,15:01:55,0.667931
 20-05-17,15:02:55,0.669451
 20-05-17,15:03:55,0.666411
 20-05-17,15:04:55,0.667931
 20-05-17,15:05:55,0.670971
 20-05-17,15:06:55,0.667931
 20-05-17,15:07:55,0.672492
 20-05-17,15:08:55,0.669451
 20-05-17,15:09:55,0.675532
 20-05-17,15:10:55,0.672492
 20-05-17,15:11:56,0.672492
 20-05-17,15:12:56,0.674012
 20-05-17,15:13:56,0.672492
 20-05-17,15:14:56,0.670971
 20-05-17,15:15:56,0.670971
 20-05-17,15:16:56,0.672492
 20-05-17,15:17:56,0.670971
 20-05-17,15:18:56,0.666411
 20-05-17,15:19:56,0.667931
 20-05-17,15:20:56,0.666411
 20-05-17,15:21:56,0.666411
 20-05-17,15:22:56,0.663370
 20-05-17,15:23:56,0.666411
 20-05-17,15:24:56,0.658810
 20-05-17,15:25:56,0.660330
 20-05-17,15:26:56,0.657290
 20-05-17,15:27:56,0.651209
 20-05-17,15:28:56,0.654249
 20-05-17,15:29:56,0.649689
 20-05-17,15:30:56,0.654249
 20-05-17,15:31:56,0.654249
 20-05-17,15:32:56,0.652729
 20-05-17,15:33:56,0.649689
 20-05-17,15:34:56,0.654249
 20-05-17,15:35:56,0.652729
 20-05-17,15:36:56,0.646648
 20-05-17,15:37:56,0.648169
 20-05-17,15:38:56,0.648169
 20-05-17,15:39:56,0.646648
 20-05-17,15:40:56,0.646648
 20-05-17,15:41:56,0.643608
 20-05-17,15:42:56,0.646648
 20-05-17,15:43:56,0.646648
 20-05-17,15:44:56,0.643608
 20-05-17,15:45:56,0.646648
 20-05-17,15:46:56,0.648169
 20-05-17,15:47:56,0.640568
 20-05-17,15:48:56,0.646648
 20-05-17,15:49:56,0.645128
 20-05-17,15:50:56,0.645128
 20-05-17,15:51:56,0.646648
 20-05-17,15:52:56,0.642088
 20-05-17,15:53:56,0.643608
 20-05-17,15:54:56,0.642088
 20-05-17,15:55:56,0.643608
 20-05-17,15:56:56,0.643608
 20-05-17,15:57:56,0.643608
 20-05-17,15:58:56,0.640568
 20-05-17,15:59:56,0.640568
 20-05-17,16:00:57,0.645128
 20-05-17,16:01:57,0.640568
 20-05-17,16:02:57,0.640568
 20-05-17,16:03:57,0.643608
 20-05-17,16:04:57,0.643608
 20-05-17,16:05:57,0.643608
 20-05-17,16:06:57,0.642088
 20-05-17,16:07:57,0.643608
 20-05-17,16:08:57,0.646648
 20-05-17,16:09:57,0.645128
 20-05-17,16:10:57,0.648169
 20-05-17,16:11:57,0.648169
 20-05-17,16:12:57,0.649689
 20-05-17,16:13:57,0.652729
 20-05-17,16:14:57,0.651209
 20-05-17,16:15:57,0.654249
 20-05-17,16:16:57,0.660330
 20-05-17,16:17:57,0.663370
 20-05-17,16:18:57,0.663370
 20-05-17,16:19:57,0.666411
 20-05-17,16:20:57,0.669451
 20-05-17,16:21:57,0.669451
 20-05-17,16:22:57,0.669451
 20-05-17,16:23:57,0.672492
 20-05-17,16:24:57,0.669451
 20-05-17,16:25:57,0.667931
 20-05-17,16:26:57,0.663370
 20-05-17,16:27:57,0.660330
 20-05-17,16:28:57,0.657290
 20-05-17,16:29:57,0.654249
 20-05-17,16:30:57,0.652729
 20-05-17,16:31:57,0.651209
 20-05-17,16:32:57,0.648169
 20-05-17,16:33:57,0.646648
 20-05-17,16:34:57,0.642088
 20-05-17,16:35:57,0.645128
 20-05-17,16:36:57,0.645128
 20-05-17,16:37:57,0.648169
 20-05-17,16:38:57,0.646648
 20-05-17,16:39:57,0.646648
 20-05-17,16:40:57,0.648169
 20-05-17,16:41:57,0.654249
 20-05-17,16:42:57,0.652729
 20-05-17,16:43:57,0.652729
 20-05-17,16:44:57,0.657290
 20-05-17,16:45:57,0.658810
 20-05-17,16:46:58,0.657290
 20-05-17,16:47:58,0.660330
 20-05-17,16:48:58,0.660330
 20-05-17,16:49:58,0.661850
 20-05-17,16:50:58,0.661850
 20-05-17,16:51:58,0.661850
 20-05-17,16:52:58,0.663370
 20-05-17,16:53:58,0.660330
 20-05-17,16:54:58,0.661850
 20-05-17,16:55:58,0.663370
 20-05-17,16:56:58,0.664891
 20-05-17,16:57:58,0.663370
 20-05-17,16:58:58,0.667931
 20-05-17,16:59:58,0.663370
 20-05-17,17:00:58,0.661850
 20-05-17,17:01:58,0.664891
 20-05-17,17:02:58,0.660330
 20-05-17,17:03:58,0.657290
 20-05-17,17:04:58,0.660330
 20-05-17,17:05:58,0.655770
 20-05-17,17:06:58,0.657290
 20-05-17,17:07:58,0.655770
 20-05-17,17:08:58,0.658810
 20-05-17,17:09:58,0.655770
 20-05-17,17:10:58,0.655770
 20-05-17,17:11:58,0.651209
 20-05-17,17:12:58,0.652729
 20-05-17,17:13:58,0.654249
 20-05-17,17:14:58,0.649689
 20-05-17,17:15:58,0.652729
 20-05-17,17:16:58,0.651209
 20-05-17,17:17:58,0.654249
 20-05-17,17:18:58,0.654249
 20-05-17,17:19:58,0.652729
 20-05-17,17:20:58,0.651209
 20-05-17,17:21:58,0.648169
 20-05-17,17:22:58,0.652729
 20-05-17,17:23:58,0.651209
 20-05-17,17:24:58,0.651209
 20-05-17,17:25:58,0.652729
 20-05-17,17:26:58,0.652729
 20-05-17,17:27:58,0.649689
 20-05-17,17:28:58,0.651209
 20-05-17,17:29:58,0.651209
 20-05-17,17:30:58,0.652729
 20-05-17,17:31:58,0.649689
 20-05-17,17:32:58,0.654249
 20-05-17,17:33:58,0.651209
 20-05-17,17:34:58,0.654249
 20-05-17,17:35:58,0.652729
 20-05-17,17:36:59,0.654249
 20-05-17,17:37:59,0.654249
 20-05-17,17:38:59,0.649689
 20-05-17,17:39:59,0.652729
 20-05-17,17:40:59,0.652729
 20-05-17,17:41:59,0.649689
 20-05-17,17:42:59,0.649689
 20-05-17,17:43:59,0.648169
 20-05-17,17:44:59,0.648169
 20-05-17,17:45:59,0.642088
 20-05-17,17:46:59,0.645128
 20-05-17,17:47:59,0.639047
 20-05-17,17:48:59,0.642088
 20-05-17,17:49:59,0.642088
 20-05-17,17:50:59,0.639047
 20-05-17,17:51:59,0.639047
 20-05-17,17:52:59,0.642088
 20-05-17,17:53:59,0.642088
 20-05-17,17:54:59,0.642088
 20-05-17,17:55:59,0.639047
 20-05-17,17:56:59,0.636007
 20-05-17,17:57:59,0.637527
 20-05-17,17:58:59,0.637527
 20-05-17,17:59:59,0.637527
 20-05-17,18:00:59,0.639047
 20-05-17,18:01:59,0.636007
 20-05-17,18:02:59,0.632967
 20-05-17,18:03:59,0.634487
 20-05-17,18:04:59,0.636007
 20-05-17,18:05:59,0.634487
 20-05-17,18:06:59,0.634487
 20-05-17,18:07:59,0.634487
 20-05-17,18:08:59,0.634487
 20-05-17,18:09:59,0.631446
 20-05-17,18:10:59,0.632967
 20-05-17,18:11:59,0.632967
 20-05-17,18:12:59,0.636007
 20-05-17,18:13:59,0.636007
 20-05-17,18:14:59,0.636007
 20-05-17,18:15:59,0.634487
 20-05-17,18:16:59,0.634487
 20-05-17,18:17:59,0.631446
 20-05-17,18:18:59,0.634487
 20-05-17,18:19:59,0.634487
 20-05-17,18:20:59,0.632967
 20-05-17,18:21:59,0.632967
 20-05-17,18:22:59,0.636007
 20-05-17,18:23:59,0.632967
 20-05-17,18:24:59,0.634487
 20-05-17,18:25:59,0.631446
 20-05-17,18:27:00,0.634487
 20-05-17,18:28:00,0.632967
 20-05-17,18:29:00,0.634487
 20-05-17,18:30:00,0.632967
 20-05-17,18:31:00,0.631446
 20-05-17,18:32:00,0.634487
 20-05-17,18:33:00,0.634487
 20-05-17,18:34:00,0.634487
 20-05-17,18:35:00,0.632967
 20-05-17,18:36:00,0.634487
 20-05-17,18:37:00,0.632967
 20-05-17,18:38:00,0.632967
 20-05-17,18:39:00,0.632967
 20-05-17,18:40:00,0.632967
 20-05-17,18:41:00,0.636007
 20-05-17,18:42:00,0.634487
 20-05-17,18:43:00,0.632967
 20-05-17,18:44:00,0.629926
 20-05-17,18:45:00,0.634487
 20-05-17,18:46:00,0.634487
 20-05-17,18:47:00,0.629926
 20-05-17,18:48:00,0.631446
 20-05-17,18:49:00,0.631446
 20-05-17,18:50:00,0.629926
 20-05-17,18:51:00,0.629926
 20-05-17,18:52:00,0.631446
 20-05-17,18:53:00,0.631446
 20-05-17,18:54:00,0.632967
 20-05-17,18:55:00,0.631446
 20-05-17,18:56:00,0.629926
 20-05-17,18:57:00,0.626886
 20-05-17,18:58:00,0.629926
 20-05-17,18:59:00,0.631446
 20-05-17,19:00:00,0.628406
 20-05-17,19:01:00,0.632967
 20-05-17,19:02:00,0.634487
 20-05-17,19:03:00,0.629926
 20-05-17,19:04:00,0.631446
 20-05-17,19:05:00,0.629926
 20-05-17,19:06:00,0.632967
 20-05-17,19:07:00,0.634487
 20-05-17,19:08:00,0.634487
 20-05-17,19:09:00,0.636007
 20-05-17,19:10:00,0.636007
 20-05-17,19:11:00,0.637527
 20-05-17,19:12:00,0.643608
 20-05-17,19:13:00,0.637527
 20-05-17,19:14:00,0.640568
 20-05-17,19:15:00,0.640568
 20-05-17,19:16:00,0.640568
 20-05-17,19:17:00,0.642088
 20-05-17,19:18:00,0.643608
 20-05-17,19:19:01,0.639047
 20-05-17,19:20:01,0.640568
 20-05-17,19:21:01,0.637527
 20-05-17,19:22:01,0.642088
 20-05-17,19:23:01,0.640568
 20-05-17,19:24:01,0.637527
 20-05-17,19:25:01,0.639047
 20-05-17,19:26:01,0.640568
 20-05-17,19:27:01,0.637527
 20-05-17,19:28:01,0.634487
 20-05-17,19:29:01,0.639047
 20-05-17,19:30:01,0.640568
 20-05-17,19:31:01,0.636007
 20-05-17,19:32:01,0.632967
 20-05-17,19:33:01,0.637527
 20-05-17,19:34:01,0.637527
 20-05-17,19:35:01,0.639047
 20-05-17,19:36:01,0.642088
 20-05-17,19:37:01,0.640568
 20-05-17,19:38:01,0.642088
 20-05-17,19:39:01,0.636007
 20-05-17,19:40:01,0.640568
 20-05-17,19:41:01,0.642088
 20-05-17,19:42:01,0.640568
 20-05-17,19:43:01,0.640568
 20-05-17,19:44:01,0.642088
 20-05-17,19:45:01,0.642088
 20-05-17,19:46:01,0.642088
 20-05-17,19:47:01,0.645128
 20-05-17,19:48:01,0.640568
 20-05-17,19:49:01,0.642088
 20-05-17,19:50:01,0.642088
 20-05-17,19:51:01,0.646648
 20-05-17,19:52:01,0.640568
 20-05-17,19:53:01,0.643608
 20-05-17,19:54:01,0.643608
 20-05-17,19:55:01,0.646648
 20-05-17,19:56:01,0.643608
 20-05-17,19:57:01,0.645128
 20-05-17,19:58:01,0.645128
 20-05-17,19:59:01,0.645128
 20-05-17,20:00:01,0.646648
 20-05-17,20:01:01,0.645128
 20-05-17,20:02:01,0.645128
 20-05-17,20:03:01,0.645128
 20-05-17,20:04:01,0.645128
 20-05-17,20:05:01,0.646648
 20-05-17,20:06:01,0.648169
 20-05-17,20:07:01,0.643608
 20-05-17,20:08:01,0.648169
 20-05-17,20:09:02,0.643608
 20-05-17,20:10:02,0.648169
 20-05-17,20:11:02,0.645128
 20-05-17,20:12:02,0.645128
 20-05-17,20:13:02,0.645128
 20-05-17,20:14:02,0.645128
 20-05-17,20:15:02,0.648169
 20-05-17,20:16:02,0.646648
 20-05-17,20:17:02,0.645128
 20-05-17,20:18:02,0.643608
 20-05-17,20:19:02,0.648169
 20-05-17,20:20:02,0.645128
 20-05-17,20:21:02,0.643608
 20-05-17,20:22:02,0.642088
 20-05-17,20:23:02,0.642088
 20-05-17,20:24:02,0.643608
 20-05-17,20:25:02,0.643608
 20-05-17,20:26:02,0.639047
 20-05-17,20:27:02,0.643608
 20-05-17,20:28:02,0.640568
 20-05-17,20:29:02,0.637527
 20-05-17,20:30:02,0.643608
 20-05-17,20:31:02,0.636007
 20-05-17,20:32:02,0.640568
 20-05-17,20:33:02,0.640568
 20-05-17,20:34:02,0.640568
 20-05-17,20:35:02,0.639047
 20-05-17,20:36:02,0.640568
 20-05-17,20:37:02,0.642088
 20-05-17,20:38:02,0.642088
 20-05-17,20:39:02,0.640568
 20-05-17,20:40:02,0.640568
 20-05-17,20:41:02,0.636007
 20-05-17,20:42:02,0.637527
 20-05-17,20:43:02,0.634487
 20-05-17,20:44:02,0.634487
 20-05-17,20:45:02,0.632967
 20-05-17,20:46:02,0.632967
 20-05-17,20:47:02,0.636007
 20-05-17,20:48:02,0.634487
 20-05-17,20:49:02,0.636007
 20-05-17,20:50:02,0.636007
 20-05-17,20:51:02,0.643608
 20-05-17,20:52:02,0.645128
 20-05-17,20:53:02,0.651209
 20-05-17,20:54:02,0.652729
 20-05-17,20:55:02,0.651209
 20-05-17,20:56:02,0.648169
 20-05-17,20:57:03,0.654249
 20-05-17,20:58:03,0.652729
 20-05-17,20:59:03,0.651209
 20-05-17,21:00:03,0.648169
 20-05-17,21:01:03,0.645128
 20-05-17,21:02:03,0.642088
 20-05-17,21:03:03,0.639047
 20-05-17,21:04:03,0.637527
 20-05-17,21:05:03,0.634487
 20-05-17,21:06:03,0.629926
 20-05-17,21:07:03,0.626886
 20-05-17,21:08:03,0.628406
 20-05-17,21:09:03,0.623845
 20-05-17,21:10:03,0.626886
 20-05-17,21:11:03,0.626886
 20-05-17,21:12:03,0.623845
 20-05-17,21:13:03,0.626886
 20-05-17,21:14:03,0.626886
 20-05-17,21:15:03,0.626886
 20-05-17,21:16:03,0.629926
 20-05-17,21:17:03,0.632967
 20-05-17,21:18:03,0.632967
 20-05-17,21:19:03,0.637527
 20-05-17,21:20:03,0.639047
 20-05-17,21:21:03,0.639047
 20-05-17,21:22:03,0.642088
 20-05-17,21:23:03,0.640568
 20-05-17,21:24:03,0.648169
 20-05-17,21:25:03,0.643608
 20-05-17,21:26:03,0.646648
 20-05-17,21:27:03,0.645128
 20-05-17,21:28:03,0.648169
 20-05-17,21:29:03,0.646648
 20-05-17,21:30:03,0.646648
 20-05-17,21:31:03,0.645128
 20-05-17,21:32:03,0.646648
 20-05-17,21:33:03,0.637527
 20-05-17,21:34:03,0.637527
 20-05-17,21:35:03,0.636007
 20-05-17,21:36:03,0.634487
 20-05-17,21:37:03,0.632967
 20-05-17,21:38:03,0.636007
 20-05-17,21:39:04,0.629926
 20-05-17,21:40:04,0.629926
 20-05-17,21:41:04,0.632967
 20-05-17,21:42:04,0.629926
 20-05-17,21:43:04,0.632967
 20-05-17,21:44:04,0.634487
 20-05-17,21:45:04,0.632967
 20-05-17,21:46:04,0.636007
 20-05-17,21:47:04,0.645128
 20-05-17,21:48:04,0.642088
 20-05-17,21:49:04,0.645128
 20-05-17,21:50:04,0.643608
 20-05-17,21:51:04,0.645128
 20-05-17,21:52:04,0.648169
 20-05-17,21:53:04,0.643608
 20-05-17,21:54:04,0.646648
 20-05-17,21:55:04,0.648169
 20-05-17,21:56:04,0.648169
 20-05-17,21:57:04,0.645128
 20-05-17,21:58:04,0.643608
 20-05-17,21:59:04,0.642088
 20-05-17,22:00:04,0.642088
 20-05-17,22:01:04,0.636007
 20-05-17,22:02:04,0.634487
 20-05-17,22:03:04,0.634487
 20-05-17,22:04:04,0.634487
 20-05-17,22:05:04,0.631446
 20-05-17,22:06:04,0.631446
 20-05-17,22:07:04,0.634487
 20-05-17,22:08:04,0.629926
 20-05-17,22:09:04,0.623845
 20-05-17,22:10:04,0.626886
 20-05-17,22:11:04,0.623845
 20-05-17,22:12:04,0.623845
 20-05-17,22:13:04,0.625366
 20-05-17,22:14:04,0.625366
 20-05-17,22:15:04,0.623845
 20-05-17,22:16:04,0.626886
 20-05-17,22:17:04,0.625366
 20-05-17,22:18:04,0.623845
 20-05-17,22:19:04,0.622325
 20-05-17,22:20:04,0.629926
 20-05-17,22:21:04,0.634487
 20-05-17,22:22:04,0.631446
 20-05-17,22:23:04,0.631446
 20-05-17,22:24:04,0.629926
 20-05-17,22:25:04,0.634487
 20-05-17,22:26:04,0.636007
 20-05-17,22:27:05,0.637527
 20-05-17,22:28:05,0.634487
 20-05-17,22:29:05,0.637527
 20-05-17,22:30:05,0.642088
 20-05-17,22:31:05,0.643608
 20-05-17,22:32:05,0.645128
 20-05-17,22:33:05,0.645128
 20-05-17,22:34:05,0.645128
 20-05-17,22:35:05,0.646648
 20-05-17,22:36:05,0.648169
 20-05-17,22:37:05,0.642088
 20-05-17,22:38:05,0.645128
 20-05-17,22:39:05,0.643608
 20-05-17,22:40:05,0.640568
 20-05-17,22:41:05,0.636007
 20-05-17,22:42:05,0.634487
 20-05-17,22:43:05,0.636007
 20-05-17,22:44:05,0.636007
 20-05-17,22:45:05,0.628406
 20-05-17,22:46:05,0.625366
 20-05-17,22:47:05,0.625366
 20-05-17,22:48:05,0.622325
 20-05-17,22:49:05,0.619285
 20-05-17,22:50:05,0.622325
 20-05-17,22:51:05,0.623845
 20-05-17,22:52:05,0.623845
 20-05-17,22:53:05,0.623845
 20-05-17,22:54:05,0.623845
 20-05-17,22:55:05,0.625366
 20-05-17,22:56:05,0.622325
 20-05-17,22:57:05,0.622325
 20-05-17,22:58:05,0.625366
 20-05-17,22:59:05,0.625366
 20-05-17,23:00:05,0.628406
 20-05-17,23:01:05,0.625366
 20-05-17,23:02:05,0.628406
 20-05-17,23:03:05,0.628406
 20-05-17,23:04:05,0.631446
 20-05-17,23:05:05,0.634487
 20-05-17,23:06:05,0.634487
 20-05-17,23:07:05,0.629926
 20-05-17,23:08:05,0.632967
 20-05-17,23:09:05,0.636007
 20-05-17,23:10:05,0.636007
 20-05-17,23:11:05,0.634487
 20-05-17,23:12:05,0.637527
 20-05-17,23:13:05,0.640568
 20-05-17,23:14:05,0.637527
 20-05-17,23:15:05,0.634487
 20-05-17,23:16:05,0.636007
 20-05-17,23:17:06,0.637527
 20-05-17,23:18:06,0.639047
 20-05-17,23:19:06,0.639047
 20-05-17,23:20:06,0.643608
 20-05-17,23:21:06,0.640568
 20-05-17,23:22:06,0.645128
 20-05-17,23:23:06,0.642088
 20-05-17,23:24:06,0.643608
 20-05-17,23:25:06,0.645128
 20-05-17,23:26:06,0.640568
 20-05-17,23:27:06,0.645128
 20-05-17,23:28:06,0.643608
 20-05-17,23:29:06,0.642088
 20-05-17,23:30:06,0.643608
 20-05-17,23:31:06,0.643608
 20-05-17,23:32:06,0.642088
 20-05-17,23:33:06,0.642088
 20-05-17,23:34:06,0.642088
 20-05-17,23:35:06,0.640568
 20-05-17,23:36:06,0.645128
 20-05-17,23:37:06,0.643608
 20-05-17,23:38:06,0.639047
 20-05-17,23:39:06,0.642088
 20-05-17,23:40:06,0.639047
 20-05-17,23:41:06,0.637527
 20-05-17,23:42:06,0.640568
 20-05-17,23:43:06,0.636007
 20-05-17,23:44:06,0.636007
 20-05-17,23:45:06,0.632967
 20-05-17,23:46:06,0.631446
 20-05-17,23:47:06,0.628406
 20-05-17,23:48:06,0.629926
 20-05-17,23:49:06,0.626886
 20-05-17,23:50:06,0.628406
 20-05-17,23:51:06,0.625366
 20-05-17,23:52:06,0.620805
 20-05-17,23:53:06,0.623845
 20-05-17,23:54:06,0.623845
 20-05-17,23:55:06,0.622325
 20-05-17,23:56:06,0.622325
 20-05-17,23:57:06,0.620805
 20-05-17,23:58:06,0.619285
 20-05-17,23:59:06,0.617765
