 04-09-17,00:00:40,1.016620E+3
 04-09-17,00:01:40,1.016620E+3
 04-09-17,00:02:41,1.016650E+3
 04-09-17,00:03:41,1.016950E+3
 04-09-17,00:04:41,1.016390E+3
 04-09-17,00:05:41,1.016380E+3
 04-09-17,00:06:41,1.016640E+3
 04-09-17,00:07:42,1.016400E+3
 04-09-17,00:08:42,1.016610E+3
 04-09-17,00:09:42,1.016300E+3
 04-09-17,00:10:42,1.016160E+3
 04-09-17,00:11:42,1.016520E+3
 04-09-17,00:12:42,1.016600E+3
 04-09-17,00:13:42,1.016910E+3
 04-09-17,00:14:42,1.015990E+3
 04-09-17,00:15:42,1.016360E+3
 04-09-17,00:16:43,1.016750E+3
 04-09-17,00:17:43,1.016480E+3
 04-09-17,00:18:43,1.016880E+3
 04-09-17,00:19:43,1.016160E+3
 04-09-17,00:20:43,1.016600E+3
 04-09-17,00:21:43,1.016290E+3
 04-09-17,00:22:43,1.016510E+3
 04-09-17,00:23:44,1.016280E+3
 04-09-17,00:24:44,1.016320E+3
 04-09-17,00:25:44,1.015930E+3
 04-09-17,00:26:44,1.016090E+3
 04-09-17,00:27:44,1.015920E+3
 04-09-17,00:28:44,1.016240E+3
 04-09-17,00:29:44,1.015720E+3
 04-09-17,00:30:44,1.016270E+3
 04-09-17,00:31:44,1.016160E+3
 04-09-17,00:32:44,1.016650E+3
 04-09-17,00:33:44,1.016420E+3
 04-09-17,00:34:45,1.015990E+3
 04-09-17,00:35:45,1.015630E+3
 04-09-17,00:36:45,1.016230E+3
 04-09-17,00:37:45,1.016210E+3
 04-09-17,00:38:45,1.015640E+3
 04-09-17,00:39:45,1.016220E+3
 04-09-17,00:40:45,1.016270E+3
 04-09-17,00:41:45,1.016030E+3
 04-09-17,00:42:45,1.016180E+3
 04-09-17,00:43:45,1.015430E+3
 04-09-17,00:44:45,1.016040E+3
 04-09-17,00:45:46,1.015780E+3
 04-09-17,00:46:46,1.015890E+3
 04-09-17,00:47:46,1.016400E+3
 04-09-17,00:48:46,1.015650E+3
 04-09-17,00:49:46,1.016070E+3
 04-09-17,00:50:46,1.015960E+3
 04-09-17,00:51:46,1.016090E+3
 04-09-17,00:52:47,1.016000E+3
 04-09-17,00:53:47,1.015590E+3
 04-09-17,00:54:47,1.016050E+3
 04-09-17,00:55:47,1.016130E+3
 04-09-17,00:56:47,1.016010E+3
 04-09-17,00:57:47,1.016160E+3
 04-09-17,00:58:47,1.016220E+3
 04-09-17,00:59:48,1.016490E+3
 04-09-17,01:00:48,1.015970E+3
 04-09-17,01:01:48,1.015990E+3
 04-09-17,01:02:48,1.015520E+3
 04-09-17,01:03:48,1.015810E+3
 04-09-17,01:04:48,1.015360E+3
 04-09-17,01:05:48,1.016160E+3
 04-09-17,01:06:48,1.016060E+3
 04-09-17,01:07:49,1.015220E+3
 04-09-17,01:08:49,1.015990E+3
 04-09-17,01:09:49,1.015820E+3
 04-09-17,01:10:49,1.015760E+3
 04-09-17,01:11:49,1.015290E+3
 04-09-17,01:12:49,1.015360E+3
 04-09-17,01:13:49,1.016010E+3
 04-09-17,01:14:50,1.015660E+3
 04-09-17,01:15:50,1.015630E+3
 04-09-17,01:16:50,1.015600E+3
 04-09-17,01:17:50,1.016080E+3
 04-09-17,01:18:50,1.016180E+3
 04-09-17,01:19:50,1.015770E+3
 04-09-17,01:20:50,1.015210E+3
 04-09-17,01:21:50,1.015580E+3
 04-09-17,01:22:50,1.015170E+3
 04-09-17,01:23:50,1.015470E+3
 04-09-17,01:24:50,1.015680E+3
 04-09-17,01:25:50,1.015900E+3
 04-09-17,01:26:51,1.015370E+3
 04-09-17,01:27:51,1.015330E+3
 04-09-17,01:28:51,1.015820E+3
 04-09-17,01:29:51,1.015520E+3
 04-09-17,01:30:51,1.015210E+3
 04-09-17,01:31:51,1.016050E+3
 04-09-17,01:32:51,1.015430E+3
 04-09-17,01:33:52,1.015560E+3
 04-09-17,01:34:52,1.015670E+3
 04-09-17,01:35:52,1.015640E+3
 04-09-17,01:36:52,1.015830E+3
 04-09-17,01:37:52,1.015630E+3
 04-09-17,01:38:52,1.015550E+3
 04-09-17,01:39:53,1.014960E+3
 04-09-17,01:40:53,1.015330E+3
 04-09-17,01:41:53,1.014940E+3
 04-09-17,01:42:53,1.015230E+3
 04-09-17,01:43:53,1.015110E+3
 04-09-17,01:44:53,1.015390E+3
 04-09-17,01:45:53,1.015450E+3
 04-09-17,01:46:54,1.015550E+3
 04-09-17,01:47:54,1.015340E+3
 04-09-17,01:48:54,1.015650E+3
 04-09-17,01:49:54,1.014970E+3
 04-09-17,01:50:54,1.015550E+3
 04-09-17,01:51:54,1.015260E+3
 04-09-17,01:52:54,1.015460E+3
 04-09-17,01:53:55,1.015510E+3
 04-09-17,01:54:55,1.015280E+3
 04-09-17,01:55:55,1.015620E+3
 04-09-17,01:56:55,1.015260E+3
 04-09-17,01:57:55,1.015510E+3
 04-09-17,01:58:55,1.015230E+3
 04-09-17,01:59:55,1.015640E+3
 04-09-17,02:00:55,1.015150E+3
 04-09-17,02:01:56,1.015370E+3
 04-09-17,02:02:56,1.015290E+3
 04-09-17,02:03:56,1.014850E+3
 04-09-17,02:04:56,1.015000E+3
 04-09-17,02:05:56,1.015630E+3
 04-09-17,02:06:56,1.015310E+3
 04-09-17,02:07:56,1.015010E+3
 04-09-17,02:08:56,1.015420E+3
 04-09-17,02:09:56,1.015210E+3
 04-09-17,02:10:56,1.014980E+3
 04-09-17,02:11:56,1.015400E+3
 04-09-17,02:12:57,1.015330E+3
 04-09-17,02:13:57,1.014560E+3
 04-09-17,02:14:57,1.015550E+3
 04-09-17,02:15:57,1.015280E+3
 04-09-17,02:16:57,1.015380E+3
 04-09-17,02:17:57,1.015390E+3
 04-09-17,02:18:57,1.015560E+3
 04-09-17,02:19:57,1.015180E+3
 04-09-17,02:20:57,1.014770E+3
 04-09-17,02:21:58,1.014810E+3
 04-09-17,02:22:58,1.014790E+3
 04-09-17,02:23:58,1.015040E+3
 04-09-17,02:24:58,1.014930E+3
 04-09-17,02:25:58,1.015590E+3
 04-09-17,02:26:59,1.015170E+3
 04-09-17,02:27:59,1.015340E+3
 04-09-17,02:28:59,1.014990E+3
 04-09-17,02:29:59,1.015060E+3
 04-09-17,02:30:59,1.015310E+3
 04-09-17,02:31:59,1.015680E+3
 04-09-17,02:32:59,1.014610E+3
 04-09-17,02:33:59,1.015360E+3
 04-09-17,02:34:59,1.015460E+3
 04-09-17,02:35:59,1.014890E+3
 04-09-17,02:37:00,1.014940E+3
 04-09-17,02:38:00,1.015440E+3
 04-09-17,02:39:00,1.014770E+3
 04-09-17,02:40:00,1.015080E+3
 04-09-17,02:41:00,1.014700E+3
 04-09-17,02:42:00,1.015310E+3
 04-09-17,02:43:00,1.015130E+3
 04-09-17,02:44:00,1.015070E+3
 04-09-17,02:45:01,1.014460E+3
 04-09-17,02:46:01,1.015160E+3
 04-09-17,02:47:01,1.015450E+3
 04-09-17,02:48:01,1.014750E+3
 04-09-17,02:49:01,1.015030E+3
 04-09-17,02:50:01,1.015030E+3
 04-09-17,02:51:01,1.014670E+3
 04-09-17,02:52:01,1.015350E+3
 04-09-17,02:53:01,1.015340E+3
 04-09-17,02:54:01,1.014690E+3
 04-09-17,02:55:01,1.015420E+3
 04-09-17,02:56:01,1.015380E+3
 04-09-17,02:57:02,1.014480E+3
 04-09-17,02:58:02,1.015150E+3
 04-09-17,02:59:02,1.014140E+3
 04-09-17,03:00:02,1.015170E+3
 04-09-17,03:01:02,1.015020E+3
 04-09-17,03:02:02,1.015030E+3
 04-09-17,03:03:02,1.015170E+3
 04-09-17,03:04:02,1.014870E+3
 04-09-17,03:05:03,1.015520E+3
 04-09-17,03:06:03,1.014400E+3
 04-09-17,03:07:03,1.014760E+3
 04-09-17,03:08:03,1.015260E+3
 04-09-17,03:09:03,1.014960E+3
 04-09-17,03:10:03,1.014850E+3
 04-09-17,03:11:03,1.015180E+3
 04-09-17,03:12:03,1.014900E+3
 04-09-17,03:13:03,1.015420E+3
 04-09-17,03:14:03,1.015240E+3
 04-09-17,03:15:03,1.014820E+3
 04-09-17,03:16:04,1.015160E+3
 04-09-17,03:17:04,1.015290E+3
 04-09-17,03:18:04,1.014640E+3
 04-09-17,03:19:04,1.015510E+3
 04-09-17,03:20:04,1.014570E+3
 04-09-17,03:21:04,1.014750E+3
 04-09-17,03:22:04,1.014980E+3
 04-09-17,03:23:05,1.014850E+3
 04-09-17,03:24:05,1.014080E+3
 04-09-17,03:25:05,1.014720E+3
 04-09-17,03:26:05,1.014920E+3
 04-09-17,03:27:05,1.015280E+3
 04-09-17,03:28:05,1.014940E+3
 04-09-17,03:29:05,1.015310E+3
 04-09-17,03:30:05,1.014940E+3
 04-09-17,03:31:05,1.015030E+3
 04-09-17,03:32:06,1.014570E+3
 04-09-17,03:33:06,1.014660E+3
 04-09-17,03:34:06,1.014810E+3
 04-09-17,03:35:06,1.015120E+3
 04-09-17,03:36:06,1.014270E+3
 04-09-17,03:37:06,1.014720E+3
 04-09-17,03:38:06,1.014740E+3
 04-09-17,03:39:07,1.014630E+3
 04-09-17,03:40:07,1.014580E+3
 04-09-17,03:41:07,1.015040E+3
 04-09-17,03:42:07,1.014490E+3
 04-09-17,03:43:07,1.014790E+3
 04-09-17,03:44:07,1.014420E+3
 04-09-17,03:45:07,1.014470E+3
 04-09-17,03:46:07,1.015060E+3
 04-09-17,03:47:08,1.014790E+3
 04-09-17,03:48:08,1.014590E+3
 04-09-17,03:49:08,1.014990E+3
 04-09-17,03:50:08,1.014460E+3
 04-09-17,03:51:08,1.014700E+3
 04-09-17,03:52:09,1.014540E+3
 04-09-17,03:53:09,1.014590E+3
 04-09-17,03:54:09,1.014740E+3
 04-09-17,03:55:09,1.014570E+3
 04-09-17,03:56:09,1.014660E+3
 04-09-17,03:57:10,1.014730E+3
 04-09-17,03:58:10,1.014860E+3
 04-09-17,03:59:10,1.014740E+3
 04-09-17,04:00:10,1.014620E+3
 04-09-17,04:01:10,1.014840E+3
 04-09-17,04:02:10,1.014350E+3
 04-09-17,04:03:10,1.014630E+3
 04-09-17,04:04:10,1.014340E+3
 04-09-17,04:05:10,1.014620E+3
 04-09-17,04:06:10,1.014760E+3
 04-09-17,04:07:10,1.014560E+3
 04-09-17,04:08:10,1.014700E+3
 04-09-17,04:09:11,1.014110E+3
 04-09-17,04:10:11,1.014850E+3
 04-09-17,04:11:11,1.013950E+3
 04-09-17,04:12:11,1.014460E+3
 04-09-17,04:13:11,1.014660E+3
 04-09-17,04:14:11,1.014590E+3
 04-09-17,04:15:11,1.014570E+3
 04-09-17,04:16:12,1.014480E+3
 04-09-17,04:17:12,1.014390E+3
 04-09-17,04:18:12,1.014940E+3
 04-09-17,04:19:12,1.014800E+3
 04-09-17,04:20:12,1.014860E+3
 04-09-17,04:21:12,1.014760E+3
 04-09-17,04:22:12,1.014780E+3
 04-09-17,04:23:12,1.014550E+3
 04-09-17,04:24:12,1.014100E+3
 04-09-17,04:25:13,1.014470E+3
 04-09-17,04:26:13,1.014590E+3
 04-09-17,04:27:13,1.014340E+3
 04-09-17,04:28:13,1.015060E+3
 04-09-17,04:29:13,1.014430E+3
 04-09-17,04:30:13,1.014470E+3
 04-09-17,04:31:13,1.015360E+3
 04-09-17,04:32:13,1.014780E+3
 04-09-17,04:33:13,1.014870E+3
 04-09-17,04:34:13,1.014510E+3
 04-09-17,04:35:13,1.014300E+3
 04-09-17,04:36:13,1.014910E+3
 04-09-17,04:37:14,1.014100E+3
 04-09-17,04:38:14,1.014830E+3
 04-09-17,04:39:14,1.014350E+3
 04-09-17,04:40:14,1.014340E+3
 04-09-17,04:41:14,1.014510E+3
 04-09-17,04:42:14,1.014310E+3
 04-09-17,04:43:14,1.014360E+3
 04-09-17,04:44:14,1.014850E+3
 04-09-17,04:45:14,1.014600E+3
 04-09-17,04:46:14,1.014580E+3
 04-09-17,04:47:15,1.014700E+3
 04-09-17,04:48:15,1.014790E+3
 04-09-17,04:49:15,1.014400E+3
 04-09-17,04:50:15,1.014250E+3
 04-09-17,04:51:15,1.014870E+3
 04-09-17,04:52:15,1.014230E+3
 04-09-17,04:53:15,1.014810E+3
 04-09-17,04:54:15,1.014200E+3
 04-09-17,04:55:15,1.014330E+3
 04-09-17,04:56:16,1.013880E+3
 04-09-17,04:57:16,1.013800E+3
 04-09-17,04:58:16,1.014750E+3
 04-09-17,04:59:16,1.014280E+3
 04-09-17,05:00:16,1.014390E+3
 04-09-17,05:01:16,1.014360E+3
 04-09-17,05:02:16,1.014990E+3
 04-09-17,05:03:16,1.014240E+3
 04-09-17,05:04:17,1.014540E+3
 04-09-17,05:05:17,1.014490E+3
 04-09-17,05:06:17,1.014290E+3
 04-09-17,05:07:17,1.015030E+3
 04-09-17,05:08:17,1.014500E+3
 04-09-17,05:09:17,1.014460E+3
 04-09-17,05:10:17,1.014390E+3
 04-09-17,05:11:17,1.013970E+3
 04-09-17,05:12:17,1.014780E+3
 04-09-17,05:13:17,1.014060E+3
 04-09-17,05:14:18,1.014540E+3
 04-09-17,05:15:18,1.014390E+3
 04-09-17,05:16:18,1.014540E+3
 04-09-17,05:17:18,1.014370E+3
 04-09-17,05:18:18,1.014120E+3
 04-09-17,05:19:18,1.014760E+3
 04-09-17,05:20:18,1.014090E+3
 04-09-17,05:21:19,1.013940E+3
 04-09-17,05:22:19,1.014410E+3
 04-09-17,05:23:19,1.014600E+3
 04-09-17,05:24:19,1.014160E+3
 04-09-17,05:25:19,1.014430E+3
 04-09-17,05:26:19,1.014420E+3
 04-09-17,05:27:19,1.014470E+3
 04-09-17,05:28:19,1.014050E+3
 04-09-17,05:29:19,1.014710E+3
 04-09-17,05:30:19,1.014320E+3
 04-09-17,05:31:19,1.014180E+3
 04-09-17,05:32:20,1.014840E+3
 04-09-17,05:33:20,1.014310E+3
 04-09-17,05:34:20,1.014450E+3
 04-09-17,05:35:20,1.014770E+3
 04-09-17,05:36:20,1.014490E+3
 04-09-17,05:37:20,1.014400E+3
 04-09-17,05:38:21,1.014430E+3
 04-09-17,05:39:21,1.014660E+3
 04-09-17,05:40:21,1.013870E+3
 04-09-17,05:41:21,1.014410E+3
 04-09-17,05:42:21,1.014660E+3
 04-09-17,05:43:21,1.013810E+3
 04-09-17,05:44:21,1.014240E+3
 04-09-17,05:45:21,1.014220E+3
 04-09-17,05:46:21,1.014560E+3
 04-09-17,05:47:22,1.014150E+3
 04-09-17,05:48:22,1.014330E+3
 04-09-17,05:49:22,1.014220E+3
 04-09-17,05:50:22,1.014730E+3
 04-09-17,05:51:22,1.014220E+3
 04-09-17,05:52:22,1.014060E+3
 04-09-17,05:53:23,1.015040E+3
 04-09-17,05:54:23,1.014450E+3
 04-09-17,05:55:23,1.014060E+3
 04-09-17,05:56:23,1.014720E+3
 04-09-17,05:57:23,1.014530E+3
 04-09-17,05:58:24,1.014580E+3
 04-09-17,05:59:24,1.014040E+3
 04-09-17,06:00:24,1.014150E+3
 04-09-17,06:01:24,1.014330E+3
 04-09-17,06:02:24,1.014130E+3
 04-09-17,06:03:24,1.013620E+3
 04-09-17,06:04:24,1.014540E+3
 04-09-17,06:05:24,1.014730E+3
 04-09-17,06:06:25,1.013900E+3
 04-09-17,06:07:25,1.014120E+3
 04-09-17,06:08:25,1.014290E+3
 04-09-17,06:09:25,1.013910E+3
 04-09-17,06:10:25,1.014160E+3
 04-09-17,06:11:25,1.014270E+3
 04-09-17,06:12:25,1.014310E+3
 04-09-17,06:13:25,1.014790E+3
 04-09-17,06:14:25,1.014430E+3
 04-09-17,06:15:26,1.013940E+3
 04-09-17,06:16:26,1.014360E+3
 04-09-17,06:17:26,1.014430E+3
 04-09-17,06:18:26,1.014340E+3
 04-09-17,06:19:26,1.014530E+3
 04-09-17,06:20:26,1.014080E+3
 04-09-17,06:21:26,1.013900E+3
 04-09-17,06:22:26,1.014260E+3
 04-09-17,06:23:26,1.013900E+3
 04-09-17,06:24:26,1.014670E+3
 04-09-17,06:25:27,1.013820E+3
 04-09-17,06:26:27,1.013660E+3
 04-09-17,06:27:27,1.014120E+3
 04-09-17,06:28:27,1.014350E+3
 04-09-17,06:29:27,1.014100E+3
 04-09-17,06:30:27,1.014240E+3
 04-09-17,06:31:27,1.013940E+3
 04-09-17,06:32:27,1.014160E+3
 04-09-17,06:33:27,1.013990E+3
 04-09-17,06:34:27,1.014480E+3
 04-09-17,06:35:28,1.014090E+3
 04-09-17,06:36:28,1.014120E+3
 04-09-17,06:37:28,1.014100E+3
 04-09-17,06:38:28,1.014110E+3
 04-09-17,06:39:28,1.013560E+3
 04-09-17,06:40:28,1.014390E+3
 04-09-17,06:41:28,1.014280E+3
 04-09-17,06:42:28,1.013380E+3
 04-09-17,06:43:28,1.014130E+3
 04-09-17,06:44:28,1.013700E+3
 04-09-17,06:45:28,1.014270E+3
 04-09-17,06:46:29,1.013870E+3
 04-09-17,06:47:29,1.013540E+3
 04-09-17,06:48:29,1.014590E+3
 04-09-17,06:49:29,1.014660E+3
 04-09-17,06:50:29,1.014150E+3
 04-09-17,06:51:29,1.013410E+3
 04-09-17,06:52:29,1.014090E+3
 04-09-17,06:53:29,1.013790E+3
 04-09-17,06:54:30,1.014210E+3
 04-09-17,06:55:30,1.014440E+3
 04-09-17,06:56:30,1.014120E+3
 04-09-17,06:57:30,1.014070E+3
 04-09-17,06:58:30,1.014280E+3
 04-09-17,06:59:30,1.014260E+3
 04-09-17,07:00:30,1.014530E+3
 04-09-17,07:01:30,1.013740E+3
 04-09-17,07:02:30,1.014560E+3
 04-09-17,07:03:30,1.014140E+3
 04-09-17,07:04:30,1.014060E+3
 04-09-17,07:05:30,1.014230E+3
 04-09-17,07:06:31,1.014480E+3
 04-09-17,07:07:31,1.014090E+3
 04-09-17,07:08:31,1.014050E+3
 04-09-17,07:09:31,1.014020E+3
 04-09-17,07:10:31,1.014270E+3
 04-09-17,07:11:31,1.014210E+3
 04-09-17,07:12:31,1.013550E+3
 04-09-17,07:13:32,1.014070E+3
 04-09-17,07:14:32,1.013730E+3
 04-09-17,07:15:32,1.014030E+3
 04-09-17,07:16:32,1.014490E+3
 04-09-17,07:17:32,1.013700E+3
 04-09-17,07:18:32,1.014650E+3
 04-09-17,07:19:32,1.013890E+3
 04-09-17,07:20:32,1.014210E+3
 04-09-17,07:21:32,1.014460E+3
 04-09-17,07:22:32,1.013760E+3
 04-09-17,07:23:33,1.014000E+3
 04-09-17,07:24:33,1.013810E+3
 04-09-17,07:25:33,1.014210E+3
 04-09-17,07:26:33,1.014770E+3
 04-09-17,07:27:33,1.013710E+3
 04-09-17,07:28:33,1.014110E+3
 04-09-17,07:29:33,1.014330E+3
 04-09-17,07:30:33,1.014550E+3
 04-09-17,07:31:33,1.013860E+3
 04-09-17,07:32:34,1.014260E+3
 04-09-17,07:33:34,1.014260E+3
 04-09-17,07:34:34,1.014260E+3
 04-09-17,07:35:34,1.014250E+3
 04-09-17,07:36:35,1.013520E+3
 04-09-17,07:37:35,1.013950E+3
 04-09-17,07:38:35,1.014120E+3
 04-09-17,07:39:35,1.013700E+3
 04-09-17,07:40:35,1.013950E+3
 04-09-17,07:41:35,1.014210E+3
 04-09-17,07:42:36,1.013830E+3
 04-09-17,07:43:36,1.014280E+3
 04-09-17,07:44:36,1.014280E+3
 04-09-17,07:45:36,1.013920E+3
 04-09-17,07:46:36,1.013900E+3
 04-09-17,07:47:36,1.013930E+3
 04-09-17,07:48:37,1.014240E+3
 04-09-17,07:49:37,1.014000E+3
 04-09-17,07:50:37,1.013860E+3
 04-09-17,07:51:37,1.014160E+3
 04-09-17,07:52:37,1.013950E+3
 04-09-17,07:53:37,1.013830E+3
 04-09-17,07:54:37,1.014510E+3
 04-09-17,07:55:38,1.014000E+3
 04-09-17,07:56:38,1.014040E+3
 04-09-17,07:57:38,1.013610E+3
 04-09-17,07:58:38,1.014580E+3
 04-09-17,07:59:39,1.013910E+3
 04-09-17,08:00:39,1.013870E+3
 04-09-17,08:01:39,1.013770E+3
 04-09-17,08:02:39,1.014630E+3
 04-09-17,08:03:39,1.013510E+3
 04-09-17,08:04:39,1.014450E+3
 04-09-17,08:05:39,1.013850E+3
 04-09-17,08:06:39,1.013840E+3
 04-09-17,08:07:39,1.013770E+3
 04-09-17,08:08:39,1.014090E+3
 04-09-17,08:09:39,1.014320E+3
 04-09-17,08:10:40,1.013600E+3
 04-09-17,08:11:40,1.013920E+3
 04-09-17,08:12:40,1.013980E+3
 04-09-17,08:13:40,1.013960E+3
 04-09-17,08:14:40,1.013630E+3
 04-09-17,08:15:40,1.014130E+3
 04-09-17,08:16:40,1.014230E+3
 04-09-17,08:17:41,1.014160E+3
 04-09-17,08:18:41,1.014030E+3
 04-09-17,08:19:41,1.013760E+3
 04-09-17,08:20:41,1.014110E+3
 04-09-17,08:21:41,1.013910E+3
 04-09-17,08:22:41,1.013290E+3
 04-09-17,08:23:42,1.013950E+3
 04-09-17,08:24:42,1.013600E+3
 04-09-17,08:25:42,1.013950E+3
 04-09-17,08:26:42,1.014060E+3
 04-09-17,08:27:42,1.013740E+3
 04-09-17,08:28:42,1.013680E+3
 04-09-17,08:29:42,1.013980E+3
 04-09-17,08:30:42,1.013890E+3
 04-09-17,08:31:42,1.013820E+3
 04-09-17,08:32:43,1.013890E+3
 04-09-17,08:33:43,1.013820E+3
 04-09-17,08:34:43,1.013930E+3
 04-09-17,08:35:43,1.013820E+3
 04-09-17,08:36:43,1.014020E+3
 04-09-17,08:37:43,1.014290E+3
 04-09-17,08:38:43,1.014120E+3
 04-09-17,08:39:43,1.013600E+3
 04-09-17,08:40:43,1.014040E+3
 04-09-17,08:41:43,1.013880E+3
 04-09-17,08:42:44,1.013690E+3
 04-09-17,08:43:44,1.013610E+3
 04-09-17,08:44:44,1.013720E+3
 04-09-17,08:45:44,1.013610E+3
 04-09-17,08:46:44,1.014050E+3
 04-09-17,08:47:44,1.014020E+3
 04-09-17,08:48:44,1.013750E+3
 04-09-17,08:49:44,1.014340E+3
 04-09-17,08:50:44,1.013410E+3
 04-09-17,08:51:44,1.014010E+3
 04-09-17,08:52:44,1.014130E+3
 04-09-17,08:53:45,1.013590E+3
 04-09-17,08:54:45,1.014170E+3
 04-09-17,08:55:45,1.014040E+3
 04-09-17,08:56:45,1.013810E+3
 04-09-17,08:57:45,1.013630E+3
 04-09-17,08:58:46,1.013890E+3
 04-09-17,08:59:46,1.014050E+3
 04-09-17,09:00:46,1.013700E+3
 04-09-17,09:01:46,1.013350E+3
 04-09-17,09:02:46,1.013710E+3
 04-09-17,09:03:46,1.013610E+3
 04-09-17,09:04:46,1.013380E+3
 04-09-17,09:05:46,1.013950E+3
 04-09-17,09:06:46,1.014180E+3
 04-09-17,09:07:46,1.013760E+3
 04-09-17,09:08:47,1.013360E+3
 04-09-17,09:09:47,1.013710E+3
 04-09-17,09:10:47,1.013810E+3
 04-09-17,09:11:47,1.013830E+3
 04-09-17,09:12:47,1.013940E+3
 04-09-17,09:13:47,1.013220E+3
 04-09-17,09:14:47,1.014090E+3
 04-09-17,09:15:47,1.013780E+3
 04-09-17,09:16:47,1.014020E+3
 04-09-17,09:17:47,1.013400E+3
 04-09-17,09:18:48,1.013470E+3
 04-09-17,09:19:48,1.014130E+3
 04-09-17,09:20:48,1.014120E+3
 04-09-17,09:21:48,1.013800E+3
 04-09-17,09:22:49,1.013950E+3
 04-09-17,09:23:49,1.013670E+3
 04-09-17,09:24:49,1.014130E+3
 04-09-17,09:25:49,1.013520E+3
 04-09-17,09:26:49,1.014140E+3
 04-09-17,09:27:50,1.013840E+3
 04-09-17,09:28:50,1.013810E+3
 04-09-17,09:29:50,1.013890E+3
 04-09-17,09:30:50,1.014070E+3
 04-09-17,09:31:50,1.013950E+3
 04-09-17,09:32:50,1.014010E+3
 04-09-17,09:33:50,1.013730E+3
 04-09-17,09:34:50,1.013740E+3
 04-09-17,09:35:50,1.014000E+3
 04-09-17,09:36:50,1.013460E+3
 04-09-17,09:37:51,1.013640E+3
 04-09-17,09:38:51,1.014000E+3
 04-09-17,09:39:51,1.014030E+3
 04-09-17,09:40:51,1.013870E+3
 04-09-17,09:41:51,1.013480E+3
 04-09-17,09:42:51,1.013650E+3
 04-09-17,09:43:51,1.013970E+3
 04-09-17,09:44:51,1.013690E+3
 04-09-17,09:45:51,1.013210E+3
 04-09-17,09:46:51,1.013390E+3
 04-09-17,09:47:51,1.014000E+3
 04-09-17,09:48:52,1.013990E+3
 04-09-17,09:49:52,1.013550E+3
 04-09-17,09:50:52,1.014290E+3
 04-09-17,09:51:52,1.013800E+3
 04-09-17,09:52:52,1.013180E+3
 04-09-17,09:53:52,1.013800E+3
 04-09-17,09:54:52,1.013820E+3
 04-09-17,09:55:52,1.013520E+3
 04-09-17,09:56:53,1.013940E+3
 04-09-17,09:57:53,1.014180E+3
 04-09-17,09:58:53,1.013670E+3
 04-09-17,09:59:53,1.013890E+3
 04-09-17,10:00:53,1.014000E+3
 04-09-17,10:01:53,1.013740E+3
 04-09-17,10:02:53,1.013600E+3
 04-09-17,10:03:53,1.014160E+3
 04-09-17,10:04:53,1.013430E+3
 04-09-17,10:05:53,1.014340E+3
 04-09-17,10:06:54,1.013660E+3
 04-09-17,10:07:54,1.013560E+3
 04-09-17,10:08:54,1.013710E+3
 04-09-17,10:09:54,1.013910E+3
 04-09-17,10:10:54,1.013840E+3
 04-09-17,10:11:54,1.013970E+3
 04-09-17,10:12:54,1.013980E+3
 04-09-17,10:13:54,1.013650E+3
 04-09-17,10:14:55,1.013260E+3
 04-09-17,10:15:55,1.014140E+3
 04-09-17,10:16:55,1.013570E+3
 04-09-17,10:17:55,1.013890E+3
 04-09-17,10:18:55,1.013160E+3
 04-09-17,10:19:55,1.013530E+3
 04-09-17,10:20:55,1.013830E+3
 04-09-17,10:21:55,1.013720E+3
 04-09-17,10:22:56,1.013750E+3
 04-09-17,10:23:56,1.014110E+3
 04-09-17,10:24:56,1.013930E+3
 04-09-17,10:25:56,1.013620E+3
 04-09-17,10:26:56,1.014010E+3
 04-09-17,10:27:56,1.013390E+3
 04-09-17,10:28:56,1.013840E+3
 04-09-17,10:29:57,1.013190E+3
 04-09-17,10:30:57,1.013390E+3
 04-09-17,10:31:57,1.013490E+3
 04-09-17,10:32:57,1.013310E+3
 04-09-17,10:33:57,1.014100E+3
 04-09-17,10:34:57,1.013830E+3
 04-09-17,10:35:57,1.013480E+3
 04-09-17,10:36:57,1.014160E+3
 04-09-17,10:37:57,1.013470E+3
 04-09-17,10:38:57,1.013990E+3
 04-09-17,10:39:57,1.013810E+3
 04-09-17,10:40:58,1.013050E+3
 04-09-17,10:41:58,1.013560E+3
 04-09-17,10:42:58,1.013790E+3
 04-09-17,10:43:58,1.013990E+3
 04-09-17,10:44:58,1.013740E+3
 04-09-17,10:45:58,1.013410E+3
 04-09-17,10:46:58,1.014070E+3
 04-09-17,10:47:59,1.013700E+3
 04-09-17,10:48:59,1.013580E+3
 04-09-17,10:49:59,1.013270E+3
 04-09-17,10:50:59,1.013830E+3
 04-09-17,10:51:59,1.013630E+3
 04-09-17,10:52:59,1.013930E+3
 04-09-17,10:54:00,1.013760E+3
 04-09-17,10:55:00,1.013550E+3
 04-09-17,10:56:00,1.013310E+3
 04-09-17,10:57:00,1.013770E+3
 04-09-17,10:58:00,1.014100E+3
 04-09-17,10:59:00,1.013790E+3
 04-09-17,11:00:00,1.013800E+3
 04-09-17,11:01:00,1.013320E+3
 04-09-17,11:02:00,1.013590E+3
 04-09-17,11:03:00,1.013650E+3
 04-09-17,11:04:00,1.013430E+3
 04-09-17,11:05:01,1.013860E+3
 04-09-17,11:06:01,1.013360E+3
 04-09-17,11:07:01,1.013540E+3
 04-09-17,11:08:01,1.013360E+3
 04-09-17,11:09:02,1.013690E+3
 04-09-17,11:10:02,1.013790E+3
 04-09-17,11:11:02,1.013740E+3
 04-09-17,11:12:02,1.013890E+3
 04-09-17,11:13:02,1.014110E+3
 04-09-17,11:14:03,1.013790E+3
 04-09-17,11:15:03,1.013940E+3
 04-09-17,11:16:03,1.013230E+3
 04-09-17,11:17:03,1.013800E+3
 04-09-17,11:18:03,1.013420E+3
 04-09-17,11:19:03,1.014130E+3
 04-09-17,11:20:03,1.013710E+3
 04-09-17,11:21:03,1.013730E+3
 04-09-17,11:22:04,1.014070E+3
 04-09-17,11:23:04,1.013520E+3
 04-09-17,11:24:04,1.013240E+3
 04-09-17,11:25:04,1.013700E+3
 04-09-17,11:26:04,1.013350E+3
 04-09-17,11:27:04,1.013240E+3
 04-09-17,11:28:04,1.013520E+3
 04-09-17,11:29:04,1.013730E+3
 04-09-17,11:30:05,1.013480E+3
 04-09-17,11:31:05,1.013260E+3
 04-09-17,11:32:05,1.013720E+3
 04-09-17,11:33:05,1.013680E+3
 04-09-17,11:34:05,1.014020E+3
 04-09-17,11:35:05,1.013700E+3
 04-09-17,11:36:05,1.013820E+3
 04-09-17,11:37:05,1.013390E+3
 04-09-17,11:38:05,1.013950E+3
 04-09-17,11:39:05,1.013580E+3
 04-09-17,11:40:06,1.014250E+3
 04-09-17,11:41:06,1.013240E+3
 04-09-17,11:42:06,1.013830E+3
 04-09-17,11:43:06,1.013650E+3
 04-09-17,11:44:06,1.013510E+3
 04-09-17,11:45:06,1.013930E+3
 04-09-17,11:46:07,1.013370E+3
 04-09-17,11:47:07,1.013690E+3
 04-09-17,11:48:07,1.013810E+3
 04-09-17,11:49:07,1.013450E+3
 04-09-17,11:50:07,1.013870E+3
 04-09-17,11:51:07,1.013410E+3
 04-09-17,11:52:07,1.013590E+3
 04-09-17,11:53:07,1.012910E+3
 04-09-17,11:54:08,1.013390E+3
 04-09-17,11:55:08,1.013340E+3
 04-09-17,11:56:08,1.013720E+3
 04-09-17,11:57:08,1.013580E+3
 04-09-17,11:58:08,1.013420E+3
 04-09-17,11:59:08,1.013210E+3
 04-09-17,12:00:09,1.013340E+3
 04-09-17,12:01:09,1.013200E+3
 04-09-17,12:02:09,1.013530E+3
 04-09-17,12:03:09,1.013740E+3
 04-09-17,12:04:09,1.013850E+3
 04-09-17,12:05:09,1.013760E+3
 04-09-17,12:06:09,1.013860E+3
 04-09-17,12:07:10,1.013460E+3
 04-09-17,12:08:10,1.013390E+3
 04-09-17,12:09:10,1.013360E+3
 04-09-17,12:10:10,1.013960E+3
 04-09-17,12:11:10,1.013580E+3
 04-09-17,12:12:10,1.013370E+3
 04-09-17,12:13:10,1.013500E+3
 04-09-17,12:14:11,1.013610E+3
 04-09-17,12:15:11,1.013590E+3
 04-09-17,12:16:11,1.013960E+3
 04-09-17,12:17:11,1.013960E+3
 04-09-17,12:18:11,1.013870E+3
 04-09-17,12:19:11,1.013770E+3
 04-09-17,12:20:11,1.013660E+3
 04-09-17,12:21:11,1.013570E+3
 04-09-17,12:22:11,1.013800E+3
 04-09-17,12:23:12,1.013540E+3
 04-09-17,12:24:12,1.014040E+3
 04-09-17,12:25:12,1.012990E+3
 04-09-17,12:26:12,1.013800E+3
 04-09-17,12:27:12,1.013740E+3
 04-09-17,12:28:13,1.013440E+3
 04-09-17,12:29:13,1.013100E+3
 04-09-17,12:30:13,1.013720E+3
 04-09-17,12:31:13,1.013550E+3
 04-09-17,12:32:14,1.013560E+3
 04-09-17,12:33:14,1.013770E+3
 04-09-17,12:34:14,1.014480E+3
 04-09-17,12:35:14,1.013450E+3
 04-09-17,12:36:14,1.014260E+3
 04-09-17,12:37:14,1.013490E+3
 04-09-17,12:38:14,1.013560E+3
 04-09-17,12:39:15,1.013300E+3
 04-09-17,12:40:15,1.013580E+3
 04-09-17,12:41:15,1.013320E+3
 04-09-17,12:42:15,1.013760E+3
 04-09-17,12:43:15,1.013110E+3
 04-09-17,12:44:16,1.013680E+3
 04-09-17,12:45:16,1.013200E+3
 04-09-17,12:46:16,1.013180E+3
 04-09-17,12:47:16,1.013680E+3
 04-09-17,12:48:16,1.013770E+3
 04-09-17,12:49:17,1.013760E+3
 04-09-17,12:50:17,1.013460E+3
 04-09-17,12:51:17,1.013320E+3
 04-09-17,12:52:17,1.013130E+3
 04-09-17,12:53:17,1.013220E+3
 04-09-17,12:54:17,1.013290E+3
 04-09-17,12:55:17,1.013240E+3
 04-09-17,12:56:17,1.012870E+3
 04-09-17,12:57:18,1.013790E+3
 04-09-17,12:58:18,1.013860E+3
 04-09-17,12:59:18,1.013700E+3
 04-09-17,13:00:18,1.013120E+3
 04-09-17,13:01:18,1.013450E+3
 04-09-17,13:02:18,1.014100E+3
 04-09-17,13:03:19,1.013820E+3
 04-09-17,13:04:19,1.013910E+3
 04-09-17,13:05:19,1.013780E+3
 04-09-17,13:06:19,1.013920E+3
 04-09-17,13:07:19,1.013330E+3
 04-09-17,13:08:20,1.013230E+3
 04-09-17,13:09:20,1.013020E+3
 04-09-17,13:10:20,1.013610E+3
 04-09-17,13:11:20,1.013390E+3
 04-09-17,13:12:20,1.013070E+3
 04-09-17,13:13:20,1.013670E+3
 04-09-17,13:14:20,1.013090E+3
 04-09-17,13:15:20,1.012930E+3
 04-09-17,13:16:21,1.013620E+3
 04-09-17,13:17:21,1.013230E+3
 04-09-17,13:18:21,1.013630E+3
 04-09-17,13:19:21,1.013090E+3
 04-09-17,13:20:21,1.014440E+3
 04-09-17,13:21:21,1.013780E+3
 04-09-17,13:22:21,1.013560E+3
 04-09-17,13:23:22,1.013250E+3
 04-09-17,13:24:22,1.013690E+3
 04-09-17,13:25:22,1.014150E+3
 04-09-17,13:26:22,1.013840E+3
 04-09-17,13:27:22,1.013470E+3
 04-09-17,13:28:22,1.013290E+3
 04-09-17,13:29:22,1.013240E+3
 04-09-17,13:30:22,1.013340E+3
 04-09-17,13:31:23,1.013660E+3
 04-09-17,13:32:23,1.013790E+3
 04-09-17,13:33:23,1.013600E+3
 04-09-17,13:34:23,1.013330E+3
 04-09-17,13:35:23,1.013460E+3
 04-09-17,13:36:23,1.012950E+3
 04-09-17,13:37:23,1.013620E+3
 04-09-17,13:38:23,1.013800E+3
 04-09-17,13:39:23,1.013590E+3
 04-09-17,13:40:24,1.013490E+3
 04-09-17,13:41:24,1.013390E+3
 04-09-17,13:42:24,1.013110E+3
 04-09-17,13:43:24,1.013900E+3
 04-09-17,13:44:24,1.013400E+3
 04-09-17,13:45:24,1.013100E+3
 04-09-17,13:46:24,1.013520E+3
 04-09-17,13:47:25,1.013210E+3
 04-09-17,13:48:25,1.013690E+3
 04-09-17,13:49:25,1.013640E+3
 04-09-17,13:50:25,1.013300E+3
 04-09-17,13:51:25,1.013780E+3
 04-09-17,13:52:25,1.013500E+3
 04-09-17,13:53:26,1.013720E+3
 04-09-17,13:54:26,1.013460E+3
 04-09-17,13:55:26,1.013450E+3
 04-09-17,13:56:26,1.013460E+3
 04-09-17,13:57:26,1.013620E+3
 04-09-17,13:58:26,1.013810E+3
 04-09-17,13:59:26,1.013220E+3
 04-09-17,14:00:27,1.013770E+3
 04-09-17,14:01:27,1.013890E+3
 04-09-17,14:02:27,1.013870E+3
 04-09-17,14:03:27,1.013410E+3
 04-09-17,14:04:27,1.013040E+3
 04-09-17,14:05:27,1.013170E+3
 04-09-17,14:06:27,1.013230E+3
 04-09-17,14:07:27,1.013760E+3
 04-09-17,14:08:27,1.013790E+3
 04-09-17,14:09:28,1.013460E+3
 04-09-17,14:10:28,1.014080E+3
 04-09-17,14:11:28,1.013140E+3
 04-09-17,14:12:28,1.013740E+3
 04-09-17,14:13:29,1.013010E+3
 04-09-17,14:14:29,1.013170E+3
 04-09-17,14:15:29,1.014090E+3
 04-09-17,14:16:29,1.013660E+3
 04-09-17,14:17:29,1.013610E+3
 04-09-17,14:18:29,1.013210E+3
 04-09-17,14:19:29,1.013300E+3
 04-09-17,14:20:30,1.013370E+3
 04-09-17,14:21:30,1.013270E+3
 04-09-17,14:22:30,1.013780E+3
 04-09-17,14:23:30,1.013510E+3
 04-09-17,14:24:30,1.013560E+3
 04-09-17,14:25:30,1.012950E+3
 04-09-17,14:26:30,1.013250E+3
 04-09-17,14:27:30,1.012900E+3
 04-09-17,14:28:31,1.012880E+3
 04-09-17,14:29:31,1.013320E+3
 04-09-17,14:30:31,1.013400E+3
 04-09-17,14:31:31,1.012860E+3
 04-09-17,14:32:31,1.013730E+3
 04-09-17,14:33:31,1.013080E+3
 04-09-17,14:34:31,1.013380E+3
 04-09-17,14:35:32,1.013120E+3
 04-09-17,14:36:32,1.013230E+3
 04-09-17,14:37:32,1.013270E+3
 04-09-17,14:38:32,1.013160E+3
 04-09-17,14:39:32,1.013550E+3
 04-09-17,14:40:32,1.014050E+3
 04-09-17,14:41:32,1.013450E+3
 04-09-17,14:42:32,1.013930E+3
 04-09-17,14:43:32,1.013460E+3
 04-09-17,14:44:32,1.013360E+3
 04-09-17,14:45:33,1.013760E+3
 04-09-17,14:46:33,1.013760E+3
 04-09-17,14:47:33,1.013300E+3
 04-09-17,14:48:33,1.013270E+3
 04-09-17,14:49:33,1.013340E+3
 04-09-17,14:50:33,1.013540E+3
 04-09-17,14:51:33,1.013140E+3
 04-09-17,14:52:34,1.013440E+3
 04-09-17,14:53:34,1.013540E+3
 04-09-17,14:54:34,1.013410E+3
 04-09-17,14:55:34,1.012940E+3
 04-09-17,14:56:34,1.012640E+3
 04-09-17,14:57:34,1.013440E+3
 04-09-17,14:58:34,1.013140E+3
 04-09-17,14:59:35,1.013760E+3
 04-09-17,15:00:35,1.013680E+3
 04-09-17,15:01:35,1.013830E+3
 04-09-17,15:02:35,1.013290E+3
 04-09-17,15:03:35,1.013140E+3
 04-09-17,15:04:35,1.013750E+3
 04-09-17,15:05:35,1.013370E+3
 04-09-17,15:06:35,1.013060E+3
 04-09-17,15:07:36,1.013040E+3
 04-09-17,15:08:36,1.013350E+3
 04-09-17,15:09:36,1.013060E+3
 04-09-17,15:10:36,1.012820E+3
 04-09-17,15:11:36,1.013240E+3
 04-09-17,15:12:36,1.013560E+3
 04-09-17,15:13:36,1.012840E+3
 04-09-17,15:14:36,1.013420E+3
 04-09-17,15:15:37,1.013080E+3
 04-09-17,15:16:37,1.013340E+3
 04-09-17,15:17:37,1.013310E+3
 04-09-17,15:18:37,1.013480E+3
 04-09-17,15:19:37,1.013200E+3
 04-09-17,15:20:37,1.013340E+3
 04-09-17,15:21:38,1.013440E+3
 04-09-17,15:22:38,1.013620E+3
 04-09-17,15:23:38,1.012960E+3
 04-09-17,15:24:38,1.013000E+3
 04-09-17,15:25:38,1.013240E+3
 04-09-17,15:26:38,1.013150E+3
 04-09-17,15:27:38,1.013120E+3
 04-09-17,15:28:38,1.013470E+3
 04-09-17,15:29:39,1.013210E+3
 04-09-17,15:30:39,1.013040E+3
 04-09-17,15:31:39,1.012960E+3
 04-09-17,15:32:39,1.013350E+3
 04-09-17,15:33:39,1.012970E+3
 04-09-17,15:34:39,1.013370E+3
 04-09-17,15:35:39,1.013790E+3
 04-09-17,15:36:39,1.013050E+3
 04-09-17,15:37:39,1.013820E+3
 04-09-17,15:38:39,1.013390E+3
 04-09-17,15:39:40,1.013650E+3
 04-09-17,15:40:40,1.013080E+3
 04-09-17,15:41:40,1.013530E+3
 04-09-17,15:42:40,1.012750E+3
 04-09-17,15:43:40,1.013310E+3
 04-09-17,15:44:40,1.013350E+3
 04-09-17,15:45:40,1.013070E+3
 04-09-17,15:46:40,1.013210E+3
 04-09-17,15:47:40,1.013090E+3
 04-09-17,15:48:40,1.013400E+3
 04-09-17,15:49:41,1.012540E+3
 04-09-17,15:50:41,1.013170E+3
 04-09-17,15:51:41,1.013150E+3
 04-09-17,15:52:41,1.013690E+3
 04-09-17,15:53:41,1.013640E+3
 04-09-17,15:54:41,1.013510E+3
 04-09-17,15:55:41,1.013120E+3
 04-09-17,15:56:41,1.012980E+3
 04-09-17,15:57:42,1.013030E+3
 04-09-17,15:58:42,1.013270E+3
 04-09-17,15:59:42,1.013230E+3
 04-09-17,16:00:42,1.013070E+3
 04-09-17,16:01:42,1.013320E+3
 04-09-17,16:02:42,1.013030E+3
 04-09-17,16:03:42,1.012840E+3
 04-09-17,16:04:43,1.013310E+3
 04-09-17,16:05:43,1.013480E+3
 04-09-17,16:06:43,1.012930E+3
 04-09-17,16:07:43,1.012770E+3
 04-09-17,16:08:43,1.013530E+3
 04-09-17,16:09:43,1.013270E+3
 04-09-17,16:10:44,1.013210E+3
 04-09-17,16:11:44,1.013250E+3
 04-09-17,16:12:44,1.013330E+3
 04-09-17,16:13:44,1.013270E+3
 04-09-17,16:14:44,1.013410E+3
 04-09-17,16:15:45,1.012680E+3
 04-09-17,16:16:45,1.013550E+3
 04-09-17,16:17:45,1.012790E+3
 04-09-17,16:18:45,1.013170E+3
 04-09-17,16:19:45,1.012770E+3
 04-09-17,16:20:45,1.013530E+3
 04-09-17,16:21:45,1.013270E+3
 04-09-17,16:22:45,1.013090E+3
 04-09-17,16:23:45,1.013930E+3
 04-09-17,16:24:45,1.013400E+3
 04-09-17,16:25:46,1.013070E+3
 04-09-17,16:26:46,1.013700E+3
 04-09-17,16:27:46,1.013260E+3
 04-09-17,16:28:46,1.013360E+3
 04-09-17,16:29:46,1.013340E+3
 04-09-17,16:30:46,1.013920E+3
 04-09-17,16:31:47,1.013880E+3
 04-09-17,16:32:47,1.012950E+3
 04-09-17,16:33:47,1.012980E+3
 04-09-17,16:34:47,1.013550E+3
 04-09-17,16:35:47,1.012640E+3
 04-09-17,16:36:47,1.012730E+3
 04-09-17,16:37:47,1.013290E+3
 04-09-17,16:38:47,1.012790E+3
 04-09-17,16:39:47,1.013700E+3
 04-09-17,16:40:47,1.013310E+3
 04-09-17,16:41:48,1.013500E+3
 04-09-17,16:42:48,1.013530E+3
 04-09-17,16:43:48,1.013610E+3
 04-09-17,16:44:48,1.013260E+3
 04-09-17,16:45:48,1.012980E+3
 04-09-17,16:46:48,1.013310E+3
 04-09-17,16:47:48,1.013830E+3
 04-09-17,16:48:48,1.013150E+3
 04-09-17,16:49:48,1.013640E+3
 04-09-17,16:50:48,1.013040E+3
 04-09-17,16:51:49,1.013220E+3
 04-09-17,16:52:49,1.013060E+3
 04-09-17,16:53:49,1.013370E+3
 04-09-17,16:54:49,1.013390E+3
 04-09-17,16:55:49,1.013500E+3
 04-09-17,16:56:49,1.013150E+3
 04-09-17,16:57:49,1.013480E+3
 04-09-17,16:58:49,1.013040E+3
 04-09-17,16:59:49,1.013360E+3
 04-09-17,17:00:49,1.013680E+3
 04-09-17,17:02:53,1.012690E+3
 04-09-17,17:03:53,1.013560E+3
 04-09-17,17:04:53,1.013370E+3
 04-09-17,17:05:53,1.013270E+3
 04-09-17,17:06:53,1.013040E+3
 04-09-17,17:07:54,1.013500E+3
 04-09-17,17:08:54,1.013350E+3
 04-09-17,17:09:54,1.013230E+3
 04-09-17,17:10:54,1.013160E+3
 04-09-17,17:11:54,1.013810E+3
 04-09-17,17:12:54,1.013300E+3
 04-09-17,17:13:54,1.013180E+3
 04-09-17,17:14:54,1.012720E+3
 04-09-17,17:15:54,1.013240E+3
 04-09-17,17:16:54,1.013260E+3
 04-09-17,17:17:55,1.013350E+3
 04-09-17,17:18:55,1.013670E+3
 04-09-17,17:19:55,1.013310E+3
 04-09-17,17:20:55,1.013450E+3
 04-09-17,17:21:55,1.012920E+3
 04-09-17,17:22:55,1.013720E+3
 04-09-17,17:23:56,1.013280E+3
 04-09-17,17:24:56,1.012860E+3
 04-09-17,17:25:56,1.013090E+3
 04-09-17,17:26:56,1.013520E+3
 04-09-17,17:27:56,1.013680E+3
 04-09-17,17:28:56,1.013860E+3
 04-09-17,17:29:56,1.013730E+3
 04-09-17,17:30:56,1.013300E+3
 04-09-17,17:31:57,1.013010E+3
 04-09-17,17:32:57,1.013060E+3
 04-09-17,17:33:57,1.013380E+3
 04-09-17,17:34:57,1.013020E+3
 04-09-17,17:35:57,1.013010E+3
 04-09-17,17:36:58,1.013590E+3
 04-09-17,17:37:58,1.013280E+3
 04-09-17,17:38:58,1.013210E+3
 04-09-17,17:39:58,1.012920E+3
 04-09-17,17:40:58,1.013380E+3
 04-09-17,17:41:58,1.013330E+3
 04-09-17,17:42:58,1.013070E+3
 04-09-17,17:43:59,1.013320E+3
 04-09-17,17:44:59,1.013330E+3
 04-09-17,17:45:59,1.013090E+3
 04-09-17,17:46:59,1.012890E+3
 04-09-17,17:47:59,1.013020E+3
 04-09-17,17:48:59,1.013180E+3
 04-09-17,17:49:59,1.013200E+3
 04-09-17,17:50:59,1.013330E+3
 04-09-17,17:52:00,1.013180E+3
 04-09-17,17:53:00,1.013310E+3
 04-09-17,17:54:00,1.013600E+3
 04-09-17,17:55:00,1.013430E+3
 04-09-17,17:56:00,1.013270E+3
 04-09-17,17:57:01,1.013530E+3
 04-09-17,17:58:01,1.013710E+3
 04-09-17,17:59:01,1.012930E+3
 04-09-17,18:00:01,1.013170E+3
 04-09-17,18:01:01,1.013720E+3
 04-09-17,18:02:01,1.013520E+3
 04-09-17,18:03:01,1.013240E+3
 04-09-17,18:04:01,1.012710E+3
 04-09-17,18:05:01,1.013000E+3
 04-09-17,18:06:01,1.013170E+3
 04-09-17,18:07:01,1.013300E+3
 04-09-17,18:08:02,1.013500E+3
 04-09-17,18:09:02,1.013410E+3
 04-09-17,18:10:02,1.014120E+3
 04-09-17,18:11:02,1.013750E+3
 04-09-17,18:12:02,1.013560E+3
 04-09-17,18:13:03,1.012960E+3
 04-09-17,18:14:03,1.013350E+3
 04-09-17,18:15:03,1.013060E+3
 04-09-17,18:16:03,1.013040E+3
 04-09-17,18:17:03,1.013680E+3
 04-09-17,18:18:03,1.013060E+3
 04-09-17,18:19:03,1.013160E+3
 04-09-17,18:20:04,1.013450E+3
 04-09-17,18:21:04,1.013200E+3
 04-09-17,18:22:04,1.013010E+3
 04-09-17,18:23:04,1.013380E+3
 04-09-17,18:24:04,1.013000E+3
 04-09-17,18:25:04,1.013270E+3
 04-09-17,18:26:04,1.013000E+3
 04-09-17,18:27:04,1.013420E+3
 04-09-17,18:28:05,1.013300E+3
 04-09-17,18:29:05,1.013230E+3
 04-09-17,18:30:05,1.013840E+3
 04-09-17,18:31:05,1.014010E+3
 04-09-17,18:32:05,1.013240E+3
 04-09-17,18:33:06,1.013840E+3
 04-09-17,18:34:06,1.013380E+3
 04-09-17,18:35:06,1.013600E+3
 04-09-17,18:36:06,1.013310E+3
 04-09-17,18:37:06,1.013300E+3
 04-09-17,18:38:06,1.013160E+3
 04-09-17,18:39:06,1.013520E+3
 04-09-17,18:40:07,1.013520E+3
 04-09-17,18:41:07,1.013470E+3
 04-09-17,18:42:07,1.013650E+3
 04-09-17,18:43:07,1.013750E+3
 04-09-17,18:44:07,1.013390E+3
 04-09-17,18:45:07,1.013630E+3
 04-09-17,18:46:08,1.013420E+3
 04-09-17,18:47:08,1.013890E+3
 04-09-17,18:48:08,1.013720E+3
 04-09-17,18:49:08,1.013040E+3
 04-09-17,18:50:08,1.013520E+3
 04-09-17,18:51:08,1.013030E+3
 04-09-17,18:52:08,1.012900E+3
 04-09-17,18:53:08,1.013440E+3
 04-09-17,18:54:09,1.013500E+3
 04-09-17,18:55:09,1.013400E+3
 04-09-17,18:56:09,1.014030E+3
 04-09-17,18:57:09,1.013390E+3
 04-09-17,18:58:09,1.013540E+3
 04-09-17,18:59:09,1.013520E+3
 04-09-17,19:00:09,1.013480E+3
 04-09-17,19:01:09,1.013280E+3
 04-09-17,19:02:09,1.012900E+3
 04-09-17,19:03:10,1.013420E+3
 04-09-17,19:04:10,1.013230E+3
 04-09-17,19:05:10,1.013190E+3
 04-09-17,19:06:10,1.013480E+3
 04-09-17,19:07:10,1.013750E+3
 04-09-17,19:08:10,1.013840E+3
 04-09-17,19:09:10,1.013390E+3
 04-09-17,19:10:10,1.013690E+3
 04-09-17,19:11:11,1.012920E+3
 04-09-17,19:12:11,1.013530E+3
 04-09-17,19:13:11,1.013150E+3
 04-09-17,19:14:11,1.013860E+3
 04-09-17,19:15:11,1.013870E+3
 04-09-17,19:16:11,1.013670E+3
 04-09-17,19:17:12,1.013420E+3
 04-09-17,19:18:12,1.013980E+3
 04-09-17,19:19:12,1.013380E+3
 04-09-17,19:20:12,1.013450E+3
 04-09-17,19:21:12,1.013300E+3
 04-09-17,19:22:13,1.013170E+3
 04-09-17,19:23:13,1.013850E+3
 04-09-17,19:24:13,1.013140E+3
 04-09-17,19:25:13,1.013920E+3
 04-09-17,19:26:13,1.013210E+3
 04-09-17,19:27:13,1.013910E+3
 04-09-17,19:28:13,1.014380E+3
 04-09-17,19:29:13,1.013540E+3
 04-09-17,19:30:13,1.013530E+3
 04-09-17,19:31:13,1.013750E+3
 04-09-17,19:32:13,1.013060E+3
 04-09-17,19:33:14,1.013680E+3
 04-09-17,19:34:14,1.013420E+3
 04-09-17,19:35:14,1.013780E+3
 04-09-17,19:36:14,1.013570E+3
 04-09-17,19:37:14,1.013680E+3
 04-09-17,19:38:14,1.013330E+3
 04-09-17,19:39:14,1.013820E+3
 04-09-17,19:40:14,1.013750E+3
 04-09-17,19:41:14,1.013830E+3
 04-09-17,19:42:15,1.013880E+3
 04-09-17,19:43:15,1.013660E+3
 04-09-17,19:44:15,1.013540E+3
 04-09-17,19:45:15,1.013830E+3
 04-09-17,19:46:15,1.013600E+3
 04-09-17,19:47:16,1.013680E+3
 04-09-17,19:48:16,1.013680E+3
 04-09-17,19:49:16,1.014030E+3
 04-09-17,19:50:16,1.013300E+3
 04-09-17,19:51:16,1.013990E+3
 04-09-17,19:52:16,1.013700E+3
 04-09-17,19:53:16,1.013800E+3
 04-09-17,19:54:16,1.013420E+3
 04-09-17,19:55:16,1.013820E+3
 04-09-17,19:56:17,1.013320E+3
 04-09-17,19:57:17,1.013830E+3
 04-09-17,19:58:17,1.013410E+3
 04-09-17,19:59:17,1.013650E+3
 04-09-17,20:00:17,1.013330E+3
 04-09-17,20:01:17,1.013570E+3
 04-09-17,20:02:17,1.013650E+3
 04-09-17,20:03:18,1.013480E+3
 04-09-17,20:04:18,1.013460E+3
 04-09-17,20:05:18,1.013520E+3
 04-09-17,20:06:18,1.014000E+3
 04-09-17,20:07:18,1.013430E+3
 04-09-17,20:08:18,1.013970E+3
 04-09-17,20:09:18,1.013830E+3
 04-09-17,20:10:18,1.013920E+3
 04-09-17,20:11:18,1.013720E+3
 04-09-17,20:12:18,1.013460E+3
 04-09-17,20:13:18,1.013340E+3
 04-09-17,20:14:18,1.013740E+3
 04-09-17,20:15:19,1.013610E+3
 04-09-17,20:16:19,1.013910E+3
 04-09-17,20:17:19,1.014010E+3
 04-09-17,20:18:19,1.013640E+3
 04-09-17,20:19:20,1.013970E+3
 04-09-17,20:20:20,1.013660E+3
 04-09-17,20:21:20,1.013940E+3
 04-09-17,20:22:20,1.013800E+3
 04-09-17,20:23:20,1.013960E+3
 04-09-17,20:24:20,1.013580E+3
 04-09-17,20:25:21,1.013320E+3
 04-09-17,20:26:21,1.013860E+3
 04-09-17,20:27:21,1.013310E+3
 04-09-17,20:28:21,1.014060E+3
 04-09-17,20:29:21,1.013790E+3
 04-09-17,20:30:21,1.013560E+3
 04-09-17,20:31:21,1.013630E+3
 04-09-17,20:32:21,1.013430E+3
 04-09-17,20:33:22,1.014010E+3
 04-09-17,20:34:22,1.013800E+3
 04-09-17,20:35:22,1.013970E+3
 04-09-17,20:36:22,1.013890E+3
 04-09-17,20:37:22,1.013690E+3
 04-09-17,20:38:22,1.013340E+3
 04-09-17,20:39:22,1.014130E+3
 04-09-17,20:40:22,1.014180E+3
 04-09-17,20:41:22,1.013810E+3
 04-09-17,20:42:23,1.014040E+3
 04-09-17,20:43:23,1.013110E+3
 04-09-17,20:44:23,1.014200E+3
 04-09-17,20:45:23,1.014200E+3
 04-09-17,20:46:23,1.013970E+3
 04-09-17,20:47:23,1.014200E+3
 04-09-17,20:48:23,1.013670E+3
 04-09-17,20:49:23,1.013430E+3
 04-09-17,20:50:23,1.013740E+3
 04-09-17,20:51:23,1.013680E+3
 04-09-17,20:52:24,1.013970E+3
 04-09-17,20:53:24,1.014050E+3
 04-09-17,20:54:24,1.014310E+3
 04-09-17,20:55:24,1.013890E+3
 04-09-17,20:56:24,1.014440E+3
 04-09-17,20:57:24,1.013800E+3
 04-09-17,20:58:24,1.014080E+3
 04-09-17,20:59:24,1.013630E+3
 04-09-17,21:00:24,1.014000E+3
 04-09-17,21:01:25,1.014010E+3
 04-09-17,21:02:25,1.014270E+3
 04-09-17,21:03:25,1.013320E+3
 04-09-17,21:04:25,1.013590E+3
 04-09-17,21:05:25,1.013920E+3
 04-09-17,21:06:25,1.013900E+3
 04-09-17,21:07:25,1.014110E+3
 04-09-17,21:08:25,1.014220E+3
 04-09-17,21:09:26,1.014240E+3
 04-09-17,21:10:26,1.013920E+3
 04-09-17,21:11:26,1.013460E+3
 04-09-17,21:12:26,1.014060E+3
 04-09-17,21:13:26,1.013940E+3
 04-09-17,21:14:26,1.014350E+3
 04-09-17,21:15:26,1.014010E+3
 04-09-17,21:16:27,1.014550E+3
 04-09-17,21:17:27,1.013670E+3
 04-09-17,21:18:27,1.014420E+3
 04-09-17,21:19:27,1.014460E+3
 04-09-17,21:20:27,1.013890E+3
 04-09-17,21:21:27,1.014370E+3
 04-09-17,21:22:27,1.014250E+3
 04-09-17,21:23:27,1.014240E+3
 04-09-17,21:24:27,1.013640E+3
 04-09-17,21:25:27,1.014070E+3
 04-09-17,21:26:28,1.014170E+3
 04-09-17,21:27:28,1.013870E+3
 04-09-17,21:28:28,1.014090E+3
 04-09-17,21:29:28,1.014270E+3
 04-09-17,21:30:28,1.014290E+3
 04-09-17,21:31:28,1.014160E+3
 04-09-17,21:32:28,1.014260E+3
 04-09-17,21:33:28,1.013970E+3
 04-09-17,21:34:29,1.014770E+3
 04-09-17,21:35:29,1.014340E+3
 04-09-17,21:36:29,1.014150E+3
 04-09-17,21:37:29,1.014490E+3
 04-09-17,21:38:29,1.014170E+3
 04-09-17,21:39:29,1.014190E+3
 04-09-17,21:40:29,1.014440E+3
 04-09-17,21:41:29,1.014010E+3
 04-09-17,21:42:30,1.014060E+3
 04-09-17,21:43:30,1.014320E+3
 04-09-17,21:44:30,1.014690E+3
 04-09-17,21:45:30,1.014470E+3
 04-09-17,21:46:30,1.014020E+3
 04-09-17,21:47:30,1.014330E+3
 04-09-17,21:48:30,1.014130E+3
 04-09-17,21:49:31,1.014360E+3
 04-09-17,21:50:31,1.014150E+3
 04-09-17,21:51:31,1.014000E+3
 04-09-17,21:52:31,1.014070E+3
 04-09-17,21:53:31,1.014280E+3
 04-09-17,21:54:31,1.014670E+3
 04-09-17,21:55:31,1.014290E+3
 04-09-17,21:56:32,1.014090E+3
 04-09-17,21:57:32,1.014440E+3
 04-09-17,21:58:32,1.014360E+3
 04-09-17,21:59:32,1.014080E+3
 04-09-17,22:00:32,1.014580E+3
 04-09-17,22:01:32,1.014550E+3
 04-09-17,22:02:32,1.014690E+3
 04-09-17,22:03:32,1.014600E+3
 04-09-17,22:04:32,1.014390E+3
 04-09-17,22:05:32,1.014440E+3
 04-09-17,22:06:33,1.014110E+3
 04-09-17,22:07:33,1.014140E+3
 04-09-17,22:08:33,1.014790E+3
 04-09-17,22:09:33,1.014590E+3
 04-09-17,22:10:33,1.014450E+3
 04-09-17,22:11:33,1.014220E+3
 04-09-17,22:12:33,1.014340E+3
 04-09-17,22:13:33,1.014400E+3
 04-09-17,22:14:34,1.014510E+3
 04-09-17,22:15:34,1.014450E+3
 04-09-17,22:16:34,1.014360E+3
 04-09-17,22:17:34,1.015100E+3
 04-09-17,22:18:34,1.014670E+3
 04-09-17,22:19:34,1.014740E+3
 04-09-17,22:20:35,1.014450E+3
 04-09-17,22:21:35,1.014570E+3
 04-09-17,22:22:35,1.014620E+3
 04-09-17,22:23:35,1.013950E+3
 04-09-17,22:24:35,1.014260E+3
 04-09-17,22:25:35,1.014900E+3
 04-09-17,22:26:35,1.013920E+3
 04-09-17,22:27:35,1.014900E+3
 04-09-17,22:28:36,1.014540E+3
 04-09-17,22:29:36,1.014430E+3
 04-09-17,22:30:36,1.014770E+3
 04-09-17,22:31:36,1.014750E+3
 04-09-17,22:32:36,1.014970E+3
 04-09-17,22:33:36,1.014570E+3
 04-09-17,22:34:36,1.014450E+3
 04-09-17,22:35:36,1.014570E+3
 04-09-17,22:36:37,1.014450E+3
 04-09-17,22:37:37,1.014500E+3
 04-09-17,22:38:37,1.015070E+3
 04-09-17,22:39:37,1.014230E+3
 04-09-17,22:40:37,1.015100E+3
 04-09-17,22:41:37,1.014540E+3
 04-09-17,22:42:37,1.014900E+3
 04-09-17,22:43:38,1.014980E+3
 04-09-17,22:44:38,1.014720E+3
 04-09-17,22:45:38,1.014710E+3
 04-09-17,22:46:38,1.015150E+3
 04-09-17,22:47:38,1.014700E+3
 04-09-17,22:48:38,1.014550E+3
 04-09-17,22:49:38,1.014520E+3
 04-09-17,22:50:38,1.014470E+3
 04-09-17,22:51:38,1.015000E+3
 04-09-17,22:52:39,1.015040E+3
 04-09-17,22:53:39,1.014520E+3
 04-09-17,22:54:39,1.014720E+3
 04-09-17,22:55:39,1.015230E+3
 04-09-17,22:56:39,1.014580E+3
 04-09-17,22:57:39,1.014660E+3
 04-09-17,22:58:39,1.015410E+3
 04-09-17,22:59:39,1.015280E+3
 04-09-17,23:00:39,1.015540E+3
 04-09-17,23:01:40,1.015510E+3
 04-09-17,23:02:40,1.014440E+3
 04-09-17,23:03:40,1.015430E+3
 04-09-17,23:04:40,1.015010E+3
 04-09-17,23:05:40,1.015580E+3
 04-09-17,23:06:40,1.014860E+3
 04-09-17,23:07:41,1.015090E+3
 04-09-17,23:08:41,1.015400E+3
 04-09-17,23:09:41,1.014960E+3
 04-09-17,23:10:41,1.014440E+3
 04-09-17,23:11:41,1.015150E+3
 04-09-17,23:12:41,1.015250E+3
 04-09-17,23:13:41,1.015050E+3
 04-09-17,23:14:41,1.015230E+3
 04-09-17,23:15:42,1.014770E+3
 04-09-17,23:16:42,1.015040E+3
 04-09-17,23:17:42,1.015160E+3
 04-09-17,23:18:42,1.015070E+3
 04-09-17,23:19:42,1.014750E+3
 04-09-17,23:20:43,1.014930E+3
 04-09-17,23:21:43,1.015130E+3
 04-09-17,23:22:43,1.015060E+3
 04-09-17,23:23:43,1.014830E+3
 04-09-17,23:24:43,1.015090E+3
 04-09-17,23:25:43,1.015000E+3
 04-09-17,23:26:43,1.015020E+3
 04-09-17,23:27:43,1.015340E+3
 04-09-17,23:28:43,1.015030E+3
 04-09-17,23:29:43,1.015410E+3
 04-09-17,23:30:43,1.014950E+3
 04-09-17,23:31:44,1.015650E+3
 04-09-17,23:32:44,1.015060E+3
 04-09-17,23:33:44,1.015470E+3
 04-09-17,23:34:44,1.015270E+3
 04-09-17,23:35:44,1.014630E+3
 04-09-17,23:36:44,1.015830E+3
 04-09-17,23:37:44,1.015300E+3
 04-09-17,23:38:44,1.015760E+3
 04-09-17,23:39:44,1.015290E+3
 04-09-17,23:40:44,1.015350E+3
 04-09-17,23:41:45,1.015060E+3
 04-09-17,23:42:45,1.015080E+3
 04-09-17,23:43:45,1.015890E+3
 04-09-17,23:44:45,1.015070E+3
 04-09-17,23:45:45,1.014920E+3
 04-09-17,23:46:45,1.015570E+3
 04-09-17,23:47:45,1.015920E+3
 04-09-17,23:48:46,1.015340E+3
 04-09-17,23:49:46,1.015460E+3
 04-09-17,23:50:46,1.015360E+3
 04-09-17,23:51:46,1.015160E+3
 04-09-17,23:52:46,1.015990E+3
 04-09-17,23:53:46,1.015650E+3
 04-09-17,23:54:46,1.015920E+3
 04-09-17,23:55:46,1.015400E+3
 04-09-17,23:56:47,1.015790E+3
 04-09-17,23:57:47,1.015800E+3
 04-09-17,23:58:47,1.015590E+3
 04-09-17,23:59:47,1.016050E+3
